\relax 
\providecommand\hyper@newdestlabel[2]{}
\providecommand\HyperFirstAtBeginDocument{\AtBeginDocument}
\HyperFirstAtBeginDocument{\ifx\hyper@anchor\@undefined
\global\let\oldcontentsline\contentsline
\gdef\contentsline#1#2#3#4{\oldcontentsline{#1}{#2}{#3}}
\global\let\oldnewlabel\newlabel
\gdef\newlabel#1#2{\newlabelxx{#1}#2}
\gdef\newlabelxx#1#2#3#4#5#6{\oldnewlabel{#1}{{#2}{#3}}}
\AtEndDocument{\ifx\hyper@anchor\@undefined
\let\contentsline\oldcontentsline
\let\newlabel\oldnewlabel
\fi}
\fi}
\global\let\hyper@last\relax 
\gdef\HyperFirstAtBeginDocument#1{#1}
\providecommand\HyField@AuxAddToFields[1]{}
\providecommand\HyField@AuxAddToCoFields[2]{}
\select@language{english}
\@writefile{toc}{\select@language{english}}
\@writefile{lof}{\select@language{english}}
\@writefile{lot}{\select@language{english}}
\citation{Weinberg}
\citation{Walker}
\citation{NFW}
\citation{Hu-Barkana}
\@writefile{toc}{\contentsline {chapter}{\numberline {1}$\Lambda $CDM on small scales}{7}{chapter.1}}
\@writefile{lof}{\addvspace {10\p@ }}
\@writefile{lot}{\addvspace {10\p@ }}
\newlabel{ch:LCDM}{{1}{7}{$\Lambda $CDM on small scales}{chapter.1}{}}
\@writefile{toc}{\contentsline {section}{\numberline {1.1}Controversies}{7}{section.1.1}}
\@writefile{toc}{\contentsline {subparagraph}{The cusp-core problem}{7}{subparagraph*.4}}
\newlabel{eq:NFW}{{1.1}{7}{The cusp-core problem}{equation.1.1.1}{}}
\citation{Kuzio}
\citation{Oh}
\citation{Kuzio}
\citation{Oh}
\citation{Weinberg}
\citation{Hui}
\@writefile{lof}{\contentsline {figure}{\numberline {1.1}{\ignorespaces The cusp core problem. \textbf  {Left}: the measured rotation curve of F568-3 (points) compared to model fits assuming a cored dark matter halo (blue solid curve) or a cuspy dark matter halo with an NFW profile (red dashed curve), concentration $C=9.2$ , $v= 110 \tmspace  +\thickmuskip {.2777em}\mathrm  {km s} ^{−1}$, published by \cite  {Kuzio} . The dotted green curve shows the contribution of baryons (stars+gas) to the rotation curve, which is included in both model fits. \textbf  {Right}: dark matter halo density profiles inferred from rotation curves of seven low surface brightness galaxies, from \cite  {Oh}. The dotted black curve indicates the cuspy density profile that diverges toward small radii and characterises CDM halos formed in N-body simulations. Profiles inferred from observations of real galaxies (dotted red curves) tend to be cored, converging to approximately constant central density.\relax }}{8}{figure.caption.5}}
\providecommand*\caption@xref[2]{\@setref\relax\@undefined{#1}}
\newlabel{fig:cusp-core}{{1.1}{8}{The cusp core problem. \textbf {Left}: the measured rotation curve of F568-3 (points) compared to model fits assuming a cored dark matter halo (blue solid curve) or a cuspy dark matter halo with an NFW profile (red dashed curve), concentration $C=9.2$ , $v= 110 \;\mathrm {km s} ^{−1}$, published by \cite {Kuzio} . The dotted green curve shows the contribution of baryons (stars+gas) to the rotation curve, which is included in both model fits. \textbf {Right}: dark matter halo density profiles inferred from rotation curves of seven low surface brightness galaxies, from \cite {Oh}. The dotted black curve indicates the cuspy density profile that diverges toward small radii and characterises CDM halos formed in N-body simulations. Profiles inferred from observations of real galaxies (dotted red curves) tend to be cored, converging to approximately constant central density.\relax }{figure.caption.5}{}}
\citation{acquarius}
\citation{Walker}
\citation{acquarius}
\citation{Walker}
\@writefile{lof}{\contentsline {figure}{\numberline {1.2}{\ignorespaces \textbf  {Left}: the missing satellites problem. Spatial distribution of dark matter (pixel brightness scales with density) obtained in the $\sim $ 1 Mpc$^2$ simulation box from a high-resolution $\Lambda $CDM N-body simulation by \cite  {acquarius}. The simulated dark matter distribution shows much richer substructure than does the observed luminous distribution, e.g. considering Andromeda's or Milky Way's satellites. \textbf  {Right}: the too-big-to-fail problem. Black curves display profiles of enclosed mass, $M(r)$ (top), and its logarithmic slope (bottom), for the most massive CDM subhalos formed in simulations of the Milky Way neighborhood. Data points indicate estimates of (i) dynamical masses enclosed within projected halflight radii of the Milky Way’s most luminous dwarf spheroidal satellites and, for two dwarfs (shown in red) with estimated core sizes, (ii) the slopes defined by masses enclosed within the different halflight radii of distinct stellar subpopulations. With respect to observations of real dwarf satellites, the simulated subhalos have more mass enclosed at the measured halflight radii and their enclosed-mass profiles have shallower slopes. Figure from \cite  {Walker}.\relax }}{9}{figure.caption.6}}
\newlabel{fig:satellites}{{1.2}{9}{\textbf {Left}: the missing satellites problem. Spatial distribution of dark matter (pixel brightness scales with density) obtained in the $\sim $ 1 Mpc$^2$ simulation box from a high-resolution $\Lambda $CDM N-body simulation by \cite {acquarius}. The simulated dark matter distribution shows much richer substructure than does the observed luminous distribution, e.g. considering Andromeda's or Milky Way's satellites. \textbf {Right}: the too-big-to-fail problem. Black curves display profiles of enclosed mass, $M(r)$ (top), and its logarithmic slope (bottom), for the most massive CDM subhalos formed in simulations of the Milky Way neighborhood. Data points indicate estimates of (i) dynamical masses enclosed within projected halflight radii of the Milky Way’s most luminous dwarf spheroidal satellites and, for two dwarfs (shown in red) with estimated core sizes, (ii) the slopes defined by masses enclosed within the different halflight radii of distinct stellar subpopulations. With respect to observations of real dwarf satellites, the simulated subhalos have more mass enclosed at the measured halflight radii and their enclosed-mass profiles have shallower slopes. Figure from \cite {Walker}.\relax }{figure.caption.6}{}}
\citation{Hui}
\citation{Weinberg}
\citation{Weinberg}
\citation{SIDM}
\citation{SIDM}
\citation{SIDM}
\@writefile{toc}{\contentsline {section}{\numberline {1.2}Possible solutions}{10}{section.1.2}}
\@writefile{toc}{\contentsline {subsection}{\numberline {1.2.1}Baryonic physics}{10}{subsection.1.2.1}}
\@writefile{toc}{\contentsline {subsection}{\numberline {1.2.2}Warm dark matter}{10}{subsection.1.2.2}}
\@writefile{toc}{\contentsline {subsection}{\numberline {1.2.3}Self Interacting dark matter}{10}{subsection.1.2.3}}
\@writefile{lof}{\contentsline {figure}{\numberline {1.3}{\ignorespaces Effect of self-interacting dark matter (SIDM) on halo structure, from simulations by \cite  {SIDM}. The left panel shows a Milky Way mass CDM halo, and the middle panel shows the same halo from an SIDM simulation with cross-section of $\sigma \simeq 1$ barn . The structure and substructure are similar, but the SIDM halo is rounder and less dense in the center. The right plot shows clearly the flattening in the core due to elastic scattering comparing, CDM and SIDM halo density profiles.\relax }}{11}{figure.caption.7}}
\newlabel{fig:SIDM}{{1.3}{11}{Effect of self-interacting dark matter (SIDM) on halo structure, from simulations by \cite {SIDM}. The left panel shows a Milky Way mass CDM halo, and the middle panel shows the same halo from an SIDM simulation with cross-section of $\sigma \simeq 1$ barn . The structure and substructure are similar, but the SIDM halo is rounder and less dense in the center. The right plot shows clearly the flattening in the core due to elastic scattering comparing, CDM and SIDM halo density profiles.\relax }{figure.caption.7}{}}
\citation{PQ}
\citation{ana-roxana}
\citation{Hu-Barkana}
\citation{Hui}
\citation{axioncosmo}
\citation{axioncosmo}
\citation{axioncosmo}
\@writefile{toc}{\contentsline {chapter}{\numberline {2}Physics of FDM}{13}{chapter.2}}
\@writefile{lof}{\addvspace {10\p@ }}
\@writefile{lot}{\addvspace {10\p@ }}
\newlabel{ch:ULAs}{{2}{13}{Physics of FDM}{chapter.2}{}}
\@writefile{toc}{\contentsline {section}{\numberline {2.1}Ultralight scalars in cosmology}{13}{section.2.1}}
\newlabel{sec:ULAcosmo}{{2.1}{13}{Ultralight scalars in cosmology}{section.2.1}{}}
\citation{Hui}
\citation{Hui}
\citation{axioncosmo}
\citation{axioncosmo}
\citation{Hui}
\@writefile{lof}{\contentsline {figure}{\numberline {2.1}{\ignorespaces Evolution of various quantities in the exact solution of the ALP equation of motion for a radiation-dominated Universe . Dimensionful quantities have arbitrary normalization. Vertical dashed lines show $a_{\mathrm  {osc}}/a_i$. Figure from \cite  {axioncosmo}.\relax }}{15}{figure.caption.8}}
\newlabel{fig:axionevolution}{{2.1}{15}{Evolution of various quantities in the exact solution of the ALP equation of motion for a radiation-dominated Universe . Dimensionful quantities have arbitrary normalization. Vertical dashed lines show $a\ut {osc}/a_i$. Figure from \cite {axioncosmo}.\relax }{figure.caption.8}{}}
\newlabel{eq:osc}{{2.10}{15}{Ultralight scalars in cosmology}{equation.2.1.10}{}}
\citation{Hui}
\citation{ana-roxana}
\@writefile{toc}{\contentsline {section}{\numberline {2.2}FDM as a superfluid}{17}{section.2.2}}
\citation{ana-roxana}
\citation{axioncosmo}
\newlabel{eq:SP}{{2.28}{18}{FDM as a superfluid}{equation.2.2.28}{}}
\newlabel{eq:fluid}{{2.31}{18}{FDM as a superfluid}{equation.2.2.31}{}}
\citation{Hu-Barkana}
\newlabel{eq:jeans1}{{2.34}{19}{FDM as a superfluid}{equation.2.2.34}{}}
\@writefile{toc}{\contentsline {section}{\numberline {2.3}Cosmological perturbations and power spectrum}{19}{section.2.3}}
\newlabel{sec:powerspectrum}{{2.3}{19}{Cosmological perturbations and power spectrum}{section.2.3}{}}
\citation{Hu-Barkana}
\newlabel{eq:perturb}{{2.42}{20}{Cosmological perturbations and power spectrum}{equation.2.3.42}{}}
\newlabel{eq:kJ}{{2.43}{20}{Cosmological perturbations and power spectrum}{equation.2.3.43}{}}
\newlabel{eq:jeansscale}{{2.44}{20}{Cosmological perturbations and power spectrum}{equation.2.3.44}{}}
\citation{Hu-Barkana}
\citation{axioncosmo}
\citation{axioncosmo}
\citation{axioncosmo}
\citation{Hu-Barkana}
\citation{axioncosmo}
\citation{axioncosmo}
\citation{kamion}
\newlabel{eq:kjscaling}{{2.47}{21}{Cosmological perturbations and power spectrum}{equation.2.3.47}{}}
\@writefile{lof}{\contentsline {figure}{\numberline {2.2}{\ignorespaces Factors ($D_+$ -- left, $D_-$ -- right) for the linear overdensity evolution in a FDM Universe at three values of $\mathaccentV {tilde}07E{k}$ as function of $a/a_i$ with $a_i > a_{\mathrm  {osc}}$. Figure from \cite  {axioncosmo}. \relax }}{22}{figure.caption.9}}
\newlabel{fig:D}{{2.2}{22}{Factors ($D_+$ -- left, $D_-$ -- right) for the linear overdensity evolution in a FDM Universe at three values of $\tilde {k}$ as function of $a/a_i$ with $a_i > a\ut {osc}$. Figure from \cite {axioncosmo}. \relax }{figure.caption.9}{}}
\@writefile{lof}{\contentsline {figure}{\numberline {2.3}{\ignorespaces Comparison between ULA (solid) and WDM (dashed) transfer functions. Figure from \cite  {axioncosmo}.\relax }}{22}{figure.caption.10}}
\newlabel{fig:T}{{2.3}{22}{Comparison between ULA (solid) and WDM (dashed) transfer functions. Figure from \cite {axioncosmo}.\relax }{figure.caption.10}{}}
\@writefile{toc}{\contentsline {section}{\numberline {2.4}Solitons and Halo Density Profiles}{22}{section.2.4}}
\citation{ana-roxana}
\citation{ruffini}
\newlabel{eq:SP2}{{2.55}{23}{Solitons and Halo Density Profiles}{equation.2.4.55}{}}
\newlabel{eq:SP2}{{2.57}{23}{Solitons and Halo Density Profiles}{equation.2.4.57}{}}
\newlabel{eq:SPsoliton}{{2.59}{23}{Solitons and Halo Density Profiles}{equation.2.4.59}{}}
\citation{ana-roxana}
\citation{ana-roxana}
\citation{ana-roxana}
\citation{ana-roxana}
\citation{ana-roxana}
\citation{ana-roxana}
\citation{jeans}
\citation{jeans}
\citation{jeans}
\@writefile{lof}{\contentsline {figure}{\numberline {2.4}{\ignorespaces  Soliton solution of Eqs. (\ref  {eq:SPsoliton}) (left) and the rescaled solution to typical dwarf galaxy parameters (right). In red it is shown the fitting profile $\rho _s(r)$ which agrees with the solution up to $3.2$ kpc. \relax }}{25}{figure.caption.11}}
\newlabel{fig:soliton}{{2.4}{25}{Soliton solution of Eqs. (\ref {eq:SPsoliton}) (left) and the rescaled solution to typical dwarf galaxy parameters (right). In red it is shown the fitting profile $\rho _s(r)$ which agrees with the solution up to $3.2$ kpc. \relax }{figure.caption.11}{}}
\@writefile{lof}{\contentsline {figure}{\numberline {2.5}{\ignorespaces  Velocity dispersions and density profiles from the soliton fitting profile generated with a MC code to fit the data for two dwark galaxies. Figure from \cite  {ana-roxana}. \relax }}{25}{figure.caption.12}}
\newlabel{fig:fornax-sculptor}{{2.5}{25}{Velocity dispersions and density profiles from the soliton fitting profile generated with a MC code to fit the data for two dwark galaxies. Figure from \cite {ana-roxana}. \relax }{figure.caption.12}{}}
\citation{uhlemann}
\citation{axioncosmo}
\@writefile{lof}{\contentsline {figure}{\numberline {2.6}{\ignorespaces  \textbf  {Left}: velocity dispersion profiles fits for the eight dSphs in the observational data set of Walker et al. (2009). \textbf  {Right}: posterior distributions of $m$ and the core radius $r_c$ (defined as the radius at which the density drops by a factor 2) for each dSph. Figure from \cite  {jeans}.\relax }}{26}{figure.caption.13}}
\newlabel{fig:dwarfs}{{2.6}{26}{\textbf {Left}: velocity dispersion profiles fits for the eight dSphs in the observational data set of Walker et al. (2009). \textbf {Right}: posterior distributions of $m$ and the core radius $r_c$ (defined as the radius at which the density drops by a factor 2) for each dSph. Figure from \cite {jeans}.\relax }{figure.caption.13}{}}
\@writefile{toc}{\contentsline {section}{\numberline {2.5}Simulations with FDM}{26}{section.2.5}}
\citation{Hu-Barkana}
\citation{Hu-Barkana}
\citation{Hu-Barkana}
\@writefile{lof}{\contentsline {figure}{\numberline {2.7}{\ignorespaces  1D simulations from \cite  {Hu-Barkana} with large (a) and small (b) Jeans scale $r_J=\lambda _J$. They show two snapshots at $t/t_{\mathrm  {dyn}}=99$ solid and 100 (dotted) for density profile (units of $15\rho _0$) and acceleration ($3L/2t_{\mathrm  {dyn}}^2$).\relax }}{27}{figure.caption.14}}
\newlabel{fig:1D}{{2.7}{27}{1D simulations from \cite {Hu-Barkana} with large (a) and small (b) Jeans scale $r_J=\lambda _J$. They show two snapshots at $t/t\ut {dyn}=99$ solid and 100 (dotted) for density profile (units of $15\rho _0$) and acceleration ($3L/2t\ut {dyn}^2$).\relax }{figure.caption.14}{}}
\citation{schive}
\citation{schive}
\citation{schive}
\@writefile{lof}{\contentsline {figure}{\numberline {2.8}{\ignorespaces Results of simulations from \cite  {schive}. \textbf  {Up panel}: comparison of large scales structures formed by FDM and CDM. In the CDM simulation the high $k$-modes of the linear power spectrum are intentionally suppressed like the FDM model, to highlight the comparison between large scale features. \textbf  {Bottom left panel}: radial density profiles of halos formed in the FDM model. Dashed lines show various halo profiles normalized to $\rho _b$ at different values of redshift. The core is well fitted by the the soliton solutions we derived in previous section (solid lines). It is also shown the CDM NFW profile which fits the profiles outside the core. The yellow hatched area indicates a core density parameter of the dSph satellites around the Milky Way, which is consistent with the majority of galaxy halos formed in the simulation. \textbf  {Bottom right panel}: FDM power spectrum at various epochs obtained from simulation in a $30 h^{-1}$ Mpc box and 1024$^3$ resolution. The vertical line marks the Jeans length at $z=47$. The dashed line denotes the predicted CDM linear power spectrum at $z=47$, at the beginning of structure formation.\relax }}{29}{figure.caption.15}}
\newlabel{fig:3D}{{2.8}{29}{Results of simulations from \cite {schive}. \textbf {Up panel}: comparison of large scales structures formed by FDM and CDM. In the CDM simulation the high $k$-modes of the linear power spectrum are intentionally suppressed like the FDM model, to highlight the comparison between large scale features. \textbf {Bottom left panel}: radial density profiles of halos formed in the FDM model. Dashed lines show various halo profiles normalized to $\rho _b$ at different values of redshift. The core is well fitted by the the soliton solutions we derived in previous section (solid lines). It is also shown the CDM NFW profile which fits the profiles outside the core. The yellow hatched area indicates a core density parameter of the dSph satellites around the Milky Way, which is consistent with the majority of galaxy halos formed in the simulation. \textbf {Bottom right panel}: FDM power spectrum at various epochs obtained from simulation in a $30 h^{-1}$ Mpc box and 1024$^3$ resolution. The vertical line marks the Jeans length at $z=47$. The dashed line denotes the predicted CDM linear power spectrum at $z=47$, at the beginning of structure formation.\relax }{figure.caption.15}{}}
\citation{Hui}
\citation{ana-roxana}
\citation{jeans}
\@writefile{toc}{\contentsline {chapter}{\numberline {3}Observational constraints on FDM}{31}{chapter.3}}
\@writefile{lof}{\addvspace {10\p@ }}
\@writefile{lot}{\addvspace {10\p@ }}
\newlabel{ch:astro}{{3}{31}{Observational constraints on FDM}{chapter.3}{}}
\@writefile{toc}{\contentsline {section}{\numberline {3.1}FDM astrophysics in nearby galaxies}{31}{section.3.1}}
\newlabel{sec:local}{{3.1}{31}{FDM astrophysics in nearby galaxies}{section.3.1}{}}
\newlabel{eq:halos}{{3.1}{31}{FDM astrophysics in nearby galaxies}{equation.3.1.1}{}}
\newlabel{eq:maxdensity}{{3.2}{31}{FDM astrophysics in nearby galaxies}{equation.3.1.2}{}}
\citation{schive}
\citation{Hui}
\citation{Hui}
\citation{Hui}
\newlabel{minradius}{{3.3}{32}{FDM astrophysics in nearby galaxies}{equation.3.1.3}{}}
\@writefile{toc}{\contentsline {subsection}{\numberline {3.1.1}Relaxation of FDM dominated systems}{32}{subsection.3.1.1}}
\@writefile{toc}{\contentsline {subsection}{\numberline {3.1.2}The missing satellite problem and too-big-to-fail problem}{32}{subsection.3.1.2}}
\citation{Hui}
\citation{Hui}
\@writefile{toc}{\contentsline {subsubsection}{Lower bound on FDM halo masses}{33}{subsubsection*.17}}
\@writefile{toc}{\contentsline {subsubsection}{Subhalos tidal disruption}{33}{subsubsection*.18}}
\citation{Hui}
\citation{schive2}
\@writefile{toc}{\contentsline {section}{\numberline {3.2}High-redshift constraints on FDM}{34}{section.3.2}}
\newlabel{sec:far}{{3.2}{34}{High-redshift constraints on FDM}{section.3.2}{}}
\@writefile{toc}{\contentsline {subsection}{\numberline {3.2.1}FDM and galaxy formation}{34}{subsection.3.2.1}}
\citation{viel}
\@writefile{toc}{\contentsline {subsection}{\numberline {3.2.2}Lyman-$\alpha $ forest constraints }{35}{subsection.3.2.2}}
\@writefile{toc}{\contentsline {subsubsection}{FDM + CDM perturbations and power spectrum}{35}{subsubsection*.19}}
\citation{viel}
\citation{viel}
\citation{viel}
\@writefile{lof}{\contentsline {figure}{\numberline {3.1}{\ignorespaces  \textbf  {Left}: sketch of the relative suppression of the linear matter power spectrum today due to FDM. \textbf  {Right} wave number at which the linear matter power spectrum drops by a factor of 2 in units of Jeans wavenumber at matter radiaion equality as a function of the FDM fraction $F$. Figure from appendix in \cite  {viel} \relax }}{36}{figure.caption.20}}
\newlabel{fig:mixedP}{{3.1}{36}{\textbf {Left}: sketch of the relative suppression of the linear matter power spectrum today due to FDM. \textbf {Right} wave number at which the linear matter power spectrum drops by a factor of 2 in units of Jeans wavenumber at matter radiaion equality as a function of the FDM fraction $F$. Figure from appendix in \cite {viel} \relax }{figure.caption.20}{}}
\citation{viel}
\citation{viel}
\citation{viel}
\@writefile{toc}{\contentsline {subsubsection}{Lyman-$\alpha $ and the missing satellite}{37}{subsubsection*.21}}
\@writefile{lof}{\contentsline {figure}{\numberline {3.2}{\ignorespaces Comparison between the constraints on FDM parameter space from the Lyman-α forest data analysis and the region able to solve the missing satellite problem. The green and blue dotted lines refer to different models predicting different Milky Way's halo masses. Figure from \cite  {viel}. \relax }}{37}{figure.caption.22}}
\newlabel{fig:constraints1}{{3.2}{37}{Comparison between the constraints on FDM parameter space from the Lyman-α forest data analysis and the region able to solve the missing satellite problem. The green and blue dotted lines refer to different models predicting different Milky Way's halo masses. Figure from \cite {viel}. \relax }{figure.caption.22}{}}
\citation{viel}
\citation{viel}
\citation{viel}
\citation{viel}
\citation{QP}
\@writefile{toc}{\contentsline {subsubsection}{Lyman-$\alpha $ and the initial mislignement}{38}{subsubsection*.23}}
\@writefile{toc}{\contentsline {subsubsection}{The importance of modified dynamics}{38}{subsubsection*.25}}
\citation{Hui}
\citation{Hui}
\citation{PTA}
\@writefile{lof}{\contentsline {figure}{\numberline {3.3}{\ignorespaces  Upper limits on the initial displacement of the scalar field $\phi _\star $ from Lyman-α forest data as a function of the ULA mass $m$. Figure from \cite  {viel} \relax }}{39}{figure.caption.24}}
\newlabel{fig:constraints2}{{3.3}{39}{Upper limits on the initial displacement of the scalar field $\phi _\star $ from Lyman-α forest data as a function of the ULA mass $m$. Figure from \cite {viel} \relax }{figure.caption.24}{}}
\@writefile{toc}{\contentsline {section}{\numberline {3.3}Perspectives on ULA detection }{39}{section.3.3}}
\newlabel{sec:det}{{3.3}{39}{Perspectives on ULA detection }{section.3.3}{}}
\citation{PTA}
\@writefile{toc}{\contentsline {subsubsection}{Pressure oscillations and PTA}{40}{subsubsection*.26}}
\@writefile{lof}{\contentsline {figure}{\numberline {3.4}{\ignorespaces  Current and forecasted constraints on axion/scalar DM from the effect of pressure oscillations on pulsar timing. The green line shows the expected level of signal if ULAs alone compose all the local DM.\relax }}{40}{figure.caption.27}}
\newlabel{fig:PTA}{{3.4}{40}{Current and forecasted constraints on axion/scalar DM from the effect of pressure oscillations on pulsar timing. The green line shows the expected level of signal if ULAs alone compose all the local DM.\relax }{figure.caption.27}{}}
\citation{schive}
\citation{viel}
\bibcite{Weinberg}{1}
\bibcite{Walker}{2}
\bibcite{NFW}{3}
\bibcite{Hu-Barkana}{4}
\bibcite{Kuzio}{5}
\bibcite{Oh}{6}
\bibcite{acquarius}{7}
\bibcite{Hui}{8}
\bibcite{SIDM}{9}
\bibcite{PQ}{10}
\bibcite{ana-roxana}{11}
\bibcite{axioncosmo}{12}
\bibcite{kamion}{13}
\bibcite{ruffini}{14}
\bibcite{jeans}{15}
\bibcite{uhlemann}{16}
\bibcite{schive}{17}
\bibcite{schive2}{18}
\bibcite{viel}{19}
\bibcite{QP}{20}
\bibcite{PTA}{21}
