%!PS-Adobe-3.0 EPSF-3.0
%%BoundingBox: 100 58 348 293
%%HiResBoundingBox: 100.200391 58.356250 347.050000 292.650000
%...................................
%%Creator: GPL Ghostscript 870 (epswrite)
%%CreationDate: 2013/07/03 21:45:23
%%DocumentData: Clean7Bit
%%LanguageLevel: 2
%%EndComments
%%BeginProlog
% This copyright applies to everything between here and the %%EndProlog:
% Copyright (C) 2009 Artifex Software, Inc.  All rights reserved.
%%BeginResource: procset GS_epswrite_2_0_1001 1.001 0
/GS_epswrite_2_0_1001 80 dict dup begin
/PageSize 2 array def/setpagesize{ PageSize aload pop 3 index eq exch
4 index eq and{ pop pop pop}{ PageSize dup  1
5 -1 roll put 0 4 -1 roll put dup null eq {false} {dup where} ifelse{ exch get exec}
{ pop/setpagedevice where
{ pop 1 dict dup /PageSize PageSize put setpagedevice}
{ /setpage where{ pop PageSize aload pop pageparams 3 {exch pop} repeat
setpage}if}ifelse}ifelse}ifelse} bind def
/!{bind def}bind def/#{load def}!/N/counttomark #
/rG{3{3 -1 roll 255 div}repeat setrgbcolor}!/G{255 div setgray}!/K{0 G}!
/r6{dup 3 -1 roll rG}!/r5{dup 3 1 roll rG}!/r3{dup rG}!
/w/setlinewidth #/J/setlinecap #
/j/setlinejoin #/M/setmiterlimit #/d/setdash #/i/setflat #
/m/moveto #/l/lineto #/c/rcurveto #
/p{N 2 idiv{N -2 roll rlineto}repeat}!
/P{N 0 gt{N -2 roll moveto p}if}!
/h{p closepath}!/H{P closepath}!
/lx{0 rlineto}!/ly{0 exch rlineto}!/v{0 0 6 2 roll c}!/y{2 copy c}!
/re{4 -2 roll m exch dup lx exch ly neg lx h}!
/^{3 index neg 3 index neg}!
/f{P fill}!/f*{P eofill}!/s{H stroke}!/S{P stroke}!
/q/gsave #/Q/grestore #/rf{re fill}!
/Y{P clip newpath}!/Y*{P eoclip newpath}!/rY{re Y}!
/|={pop exch 4 1 roll 1 array astore cvx 3 array astore cvx exch 1 index def exec}!
/|{exch string readstring |=}!
/+{dup type/nametype eq{2 index 7 add -3 bitshift 2 index mul}if}!
/@/currentfile #/${+ @ |}!
/B{{2 copy string{readstring pop}aload pop 4 array astore cvx
3 1 roll}repeat pop pop true}!
/Ix{[1 0 0 1 11 -2 roll exch neg exch neg]exch}!
/,{true exch Ix imagemask}!/If{false exch Ix imagemask}!/I{exch Ix image}!
/Ic{exch Ix false 3 colorimage}!
/F{/Columns counttomark 3 add -2 roll/Rows exch/K -1/BlackIs1 true>>
/CCITTFaxDecode filter}!/FX{<</EndOfBlock false F}!
/X{/ASCII85Decode filter}!/@X{@ X}!/&2{2 index 2 index}!
/@F{@ &2<<F}!/@C{@X &2 FX}!
/$X{+ @X |}!/&4{4 index 4 index}!/$F{+ @ &4<<F |}!/$C{+ @X &4 FX |}!
/IC{3 1 roll 10 dict begin 1{/ImageType/Interpolate/Decode/DataSource
/ImageMatrix/BitsPerComponent/Height/Width}{exch def}forall
currentdict end image}!
/~{@ read {pop} if}!
end def
%%EndResource
/pagesave null def
%%EndProlog
%%Page: 1 1
%%BeginPageSetup
GS_epswrite_2_0_1001 begin
/pagesave save store 197 dict begin
0.1 0.1 scale
%%EndPageSetup
gsave mark
Q q
0 0 250000 250000 re
Y
5 w
3.8 M
K
1380 836 31.5 0 P
3467.5 836 -31.5 0 S
0.2 i
1172 841.6 0 -40.6 7 0 0 57 -4.7 0 P
-2.51 -8.77 -4.13 -9.97 -15.14 -11.34 c
0 -5.06 h
f
1217 858 m
-5.12 0 -9.78 -2.23 -12.65 -6 c
-3.57 -5.03 -5.35 -12.73 -5.35 -23.34 c
0 -19.37 6.21 -29.66 18 -29.66 c
11.63 0 18 10.29 18 29.17 c
0 11.18 -1.71 18.64 -5.36 23.83 c
-2.87 3.84 -7.45 6 -12.64 6 c
h
1217 852 m
7.36 0 11 -7.77 11 -23.14 c
0 -16.26 -3.56 -23.86 -11.16 -23.86 c
-7.2 0 -10.84 7.93 -10.84 23.62 c
0 15.69 3.64 23.38 11 23.38 c
h
f
1243 856 15 5 re
f
1278 873.05 0 -32.05 5 0 0 45 -3.66 0 P
-1.96 -6.92 -3.22 -7.87 -11.81 -8.95 c
0 -4 h
f
1327.68 846 -23.32 0 P
0.56 3.73 2.57 6.11 8 9.39 c
6.25 3.47 p
6.19 3.47 9.38 8.16 9.38 13.76 c
0 3.8 -1.5 7.33 -4.12 9.77 c
-2.62 2.45 -5.87 3.61 -10.06 3.61 c
-5.62 0 -9.8 -2 -12.24 -5.75 c
-1.56 -2.37 -2.25 -5.12 -2.37 -9.62 c
5.64 0 p
0.19 2.95 0.58 4.72 1.35 6.13 c
1.48 2.64 4.43 4.23 7.82 4.23 c
5.13 0 8.98 -3.61 8.98 -8.42 c
0 -3.54 -2.12 -6.58 -6.16 -8.86 c
-5.9 -3.29 p
-9.5 -5.31 -12.25 -9.55 -12.77 -19.43 c
29.51 0 h
f
1 i
1380 996.5 15.5 0 P
3467.5 996.5 -15.5 0 P
1380 1157 31.5 0 P
3467.5 1157 -31.5 0 S
0.2 i
1172 1162.6 0 -40.6 7 0 0 57 -4.7 0 P
-2.51 -8.77 -4.13 -9.97 -15.14 -11.34 c
0 -5.06 h
f
1217 1179 m
-5.12 0 -9.78 -2.23 -12.65 -6 c
-3.57 -5.03 -5.35 -12.73 -5.35 -23.34 c
0 -19.37 6.21 -29.66 18 -29.66 c
11.63 0 18 10.29 18 29.17 c
0 11.18 -1.71 18.64 -5.36 23.83 c
-2.87 3.84 -7.45 6 -12.64 6 c
h
1217 1173 m
7.36 0 11 -7.77 11 -23.14 c
0 -16.26 -3.56 -23.86 -11.16 -23.86 c
-7.2 0 -10.84 7.93 -10.84 23.62 c
0 15.69 3.64 23.38 11 23.38 c
h
f
1243 1177 15 5 re
f
1278 1194.05 0 -32.05 5 0 0 45 -3.66 0 P
-1.96 -6.92 -3.22 -7.87 -11.81 -8.95 c
0 -4 h
f
1313.5 1207 m
-4.12 0 -7.87 -1.86 -10.19 -5 c
-2.87 -3.89 -4.31 -9.84 -4.31 -18.05 c
0 -14.98 5 -22.95 14.5 -22.95 c
9.38 0 14.5 7.96 14.5 22.57 c
0 8.65 -1.37 14.42 -4.31 18.43 c
-2.31 3.2 -6 5 -10.19 5 c
h
1313.5 1202 m
6.35 0 9.5 -5.95 9.5 -17.72 c
0 -12.45 -3.08 -18.28 -9.64 -18.28 c
-6.22 0 -9.36 6.07 -9.36 18.09 c
0 12.02 3.14 17.91 9.5 17.91 c
h
f
1 i
1380 1317.5 15.5 0 P
3467.5 1317.5 -15.5 0 P
1380 1478.5 31.5 0 P
3467.5 1478.5 -31.5 0 S
0.2 i
1207 1484.6 0 -40.6 7 0 0 57 -4.7 0 P
-2.51 -8.77 -4.13 -9.97 -15.14 -11.34 c
0 -5.06 h
f
1253 1501 m
-5.12 0 -9.78 -2.23 -12.65 -6 c
-3.57 -5.03 -5.35 -12.73 -5.35 -23.34 c
0 -19.37 6.21 -29.66 18 -29.66 c
11.63 0 18 10.29 18 29.17 c
0 11.18 -1.71 18.64 -5.36 23.83 c
-2.87 3.84 -7.45 6 -12.64 6 c
h
1253 1495 m
7.36 0 11 -7.77 11 -23.14 c
0 -16.26 -3.56 -23.86 -11.16 -23.86 c
-7.2 0 -10.84 7.93 -10.84 23.62 c
0 15.69 3.64 23.38 11 23.38 c
h
f
1278 1499 15 5 re
f
1321.02 1507.88 m
4.5 2.77 5.98 5.03 5.98 9.24 c
0 6.97 -5.52 11.88 -13.5 11.88 c
-7.92 0 -13.5 -4.91 -13.5 -11.88 c
0 -4.15 1.53 -6.41 6.11 -9.24 c
-4.76 -2.45 -7.11 -6.16 -7.11 -11.06 c
0 -8.16 5.97 -13.82 14.5 -13.82 c
8.53 0 14.5 5.66 14.5 13.76 c
0 4.96 -2.29 8.67 -6.98 11.12 c
h
1313.5 1524 m
5.18 0 8.5 -2.77 8.5 -7.1 c
0 -4.14 -3.39 -6.9 -8.5 -6.9 c
-5.11 0 -8.5 2.76 -8.5 6.96 c
0 4.27 3.39 7.04 8.5 7.04 c
h
1313.5 1505 m
5.65 0 9.5 -3.41 9.5 -8.47 c
0 -5.12 -3.85 -8.53 -9.63 -8.53 c
-5.52 0 -9.37 3.47 -9.37 8.53 c
0 5.06 3.85 8.47 9.5 8.47 c
h
f
1 i
1380 1639 15.5 0 P
3467.5 1639 -15.5 0 P
1380 1799.5 31.5 0 P
3467.5 1799.5 -31.5 0 S
0.2 i
1207 1805.6 0 -40.6 7 0 0 57 -4.7 0 P
-2.51 -8.77 -4.13 -9.97 -15.14 -11.34 c
0 -5.06 h
f
1253 1822 m
-5.12 0 -9.78 -2.23 -12.65 -6 c
-3.57 -5.03 -5.35 -12.73 -5.35 -23.34 c
0 -19.37 6.21 -29.66 18 -29.66 c
11.63 0 18 10.29 18 29.17 c
0 11.18 -1.71 18.64 -5.36 23.83 c
-2.87 3.84 -7.45 6 -12.64 6 c
h
1253 1816 m
7.36 0 11 -7.77 11 -23.14 c
0 -16.26 -3.56 -23.86 -11.16 -23.86 c
-7.2 0 -10.84 7.93 -10.84 23.62 c
0 15.69 3.64 23.38 11 23.38 c
h
f
1278 1820 15 5 re
f
1327.87 1839 m
-1.08 6.89 -5.9 11 -12.75 11 c
-4.95 0 -9.39 -2.4 -12.05 -6.36 c
-2.79 -4.34 -4.06 -9.8 -4.06 -17.91 c
0 -7.48 1.11 -12.25 3.7 -16.21 c
2.34 -3.58 6.17 -5.53 10.98 -5.53 c
8.33 0 14.32 6.25 14.32 14.94 c
0 8.25 -5.68 14.06 -13.71 14.06 c
-4.42 0 -7.89 -1.71 -10.29 -5 c
0.07 10.93 3.73 17 10.33 17 c
4.05 0 6.87 -2.19 7.78 -6 c
h
1314.2 1828 m
5.42 0 8.8 -3.64 8.8 -9.5 c
0 -5.49 -3.83 -9.5 -8.99 -9.5 c
-5.22 0 -9.18 4.2 -9.18 9.81 c
0 5.43 3.82 9.19 9.37 9.19 c
h
f
1 i
1380 1960 15.5 0 P
3467.5 1960 -15.5 0 P
1380 2120.5 31.5 0 P
3467.5 2120.5 -31.5 0 S
0.2 i
1207 2126.6 0 -40.6 7 0 0 57 -4.7 0 P
-2.51 -8.77 -4.13 -9.97 -15.14 -11.34 c
0 -5.06 h
f
1253 2143 m
-5.12 0 -9.78 -2.23 -12.65 -6 c
-3.57 -5.03 -5.35 -12.73 -5.35 -23.34 c
0 -19.37 6.21 -29.66 18 -29.66 c
11.63 0 18 10.29 18 29.17 c
0 11.18 -1.71 18.64 -5.36 23.83 c
-2.87 3.84 -7.45 6 -12.64 6 c
h
1253 2137 m
7.36 0 11 -7.77 11 -23.14 c
0 -16.26 -3.56 -23.86 -11.16 -23.86 c
-7.2 0 -10.84 7.93 -10.84 23.62 c
0 15.69 3.64 23.38 11 23.38 c
h
f
1278 2141 15 5 re
f
1317 2137 0 -11 5 0 ^ 7.28 0 0 5 ^ 0 29 
-4.07 0 -20.14 -28.13 0 -5.87 H
1317 2142 -14.28 0 14.28 19.78 H
f
1 i
1380 2281 15.5 0 P
3467.5 2281 -15.5 0 P
1380 2442 31.5 0 P
3467.5 2442 -31.5 0 S
0.2 i
1207 2447.6 0 -40.6 7 0 0 57 -4.7 0 P
-2.51 -8.77 -4.13 -9.97 -15.14 -11.34 c
0 -5.06 h
f
1253 2464 m
-5.12 0 -9.78 -2.23 -12.65 -6 c
-3.57 -5.03 -5.35 -12.73 -5.35 -23.34 c
0 -19.37 6.21 -29.66 18 -29.66 c
11.63 0 18 10.29 18 29.17 c
0 11.18 -1.71 18.64 -5.36 23.83 c
-2.87 3.84 -7.45 6 -12.64 6 c
h
1253 2458 m
7.36 0 11 -7.77 11 -23.14 c
0 -16.26 -3.56 -23.86 -11.16 -23.86 c
-7.2 0 -10.84 7.93 -10.84 23.62 c
0 15.69 3.64 23.38 11 23.38 c
h
f
1278 2462 15 5 re
f
1327.68 2452 -23.32 0 P
0.56 3.73 2.57 6.11 8 9.39 c
6.25 3.47 p
6.19 3.47 9.38 8.16 9.38 13.76 c
0 3.8 -1.5 7.33 -4.12 9.77 c
-2.62 2.45 -5.87 3.61 -10.06 3.61 c
-5.62 0 -9.8 -2 -12.24 -5.75 c
-1.56 -2.37 -2.25 -5.12 -2.37 -9.62 c
5.64 0 p
0.19 2.95 0.58 4.72 1.35 6.13 c
1.48 2.64 4.43 4.23 7.82 4.23 c
5.13 0 8.98 -3.61 8.98 -8.42 c
0 -3.54 -2.12 -6.58 -6.16 -8.86 c
-5.9 -3.29 p
-9.5 -5.31 -12.25 -9.55 -12.77 -19.43 c
29.51 0 h
f
1 i
1380 2602.5 15.5 0 P
3467.5 2602.5 -15.5 0 P
1380 2763 31.5 0 P
3467.5 2763 -31.5 0 S
0.2 i
1228 2768.6 0 -40.6 7 0 0 57 -4.7 0 P
-2.51 -8.77 -4.13 -9.97 -15.14 -11.34 c
0 -5.06 h
f
1274 2785 m
-5.12 0 -9.78 -2.23 -12.65 -6 c
-3.57 -5.03 -5.35 -12.73 -5.35 -23.34 c
0 -19.37 6.21 -29.66 18 -29.66 c
11.63 0 18 10.29 18 29.17 c
0 11.18 -1.71 18.64 -5.36 23.83 c
-2.87 3.84 -7.45 6 -12.64 6 c
h
1274 2779 m
7.36 0 11 -7.77 11 -23.14 c
0 -16.26 -3.56 -23.86 -11.16 -23.86 c
-7.2 0 -10.84 7.93 -10.84 23.62 c
0 15.69 3.64 23.38 11 23.38 c
h
f
1313.5 2813 m
-4.12 0 -7.87 -1.86 -10.19 -5 c
-2.87 -3.89 -4.31 -9.84 -4.31 -18.05 c
0 -14.98 5 -22.95 14.5 -22.95 c
9.38 0 14.5 7.96 14.5 22.57 c
0 8.65 -1.37 14.42 -4.31 18.43 c
-2.31 3.2 -6 5 -10.19 5 c
h
1313.5 2808 m
6.35 0 9.5 -5.95 9.5 -17.72 c
0 -12.45 -3.08 -18.28 -9.64 -18.28 c
-6.22 0 -9.36 6.07 -9.36 18.09 c
0 12.02 3.14 17.91 9.5 17.91 c
h
f
1 i
1380 2923.5 15.5 0 P
3467.5 2923.5 -15.5 0 P
1380 836 0 31.5 P
1380 2923.5 0 -31.5 S
0.2 i
1328 761.6 0 -40.6 7 0 0 57 -4.7 0 P
-2.51 -8.77 -4.13 -9.97 -15.14 -11.34 c
0 -5.06 h
f
1374 778 m
-5.12 0 -9.78 -2.23 -12.65 -6 c
-3.57 -5.03 -5.35 -12.73 -5.35 -23.34 c
0 -19.37 6.21 -29.66 18 -29.66 c
11.63 0 18 10.29 18 29.17 c
0 11.18 -1.71 18.64 -5.36 23.83 c
-2.87 3.84 -7.45 6 -12.64 6 c
h
1374 772 m
7.36 0 11 -7.77 11 -23.14 c
0 -16.26 -3.56 -23.86 -11.16 -23.86 c
-7.2 0 -10.84 7.93 -10.84 23.62 c
0 15.69 3.64 23.38 11 23.38 c
h
f
1399 776 15 5 re
f
1434 793.05 0 -32.05 5 0 0 45 -3.66 0 P
-1.96 -6.92 -3.22 -7.87 -11.81 -8.95 c
0 -4 h
f
1 i
1570.5 836 0 15.5 P
1570.5 2923.5 0 -15.5 P
1681.5 836 0 15.5 P
1681.5 2923.5 0 -15.5 P
1760.5 836 0 15.5 P
1760.5 2923.5 0 -15.5 P
1822 836 0 15.5 P
1822 2923.5 0 -15.5 P
1872 836 0 15.5 P
1872 2923.5 0 -15.5 P
1914.5 836 0 15.5 P
1914.5 2923.5 0 -15.5 P
1951 836 0 15.5 P
1951 2923.5 0 -15.5 P
1983.5 836 0 15.5 P
1983.5 2923.5 0 -15.5 P
2012.5 836 0 31.5 P
2012.5 2923.5 0 -31.5 S
0.2 i
1971 761.6 0 -40.6 7 0 0 57 -4.7 0 P
-2.51 -8.77 -4.13 -9.97 -15.14 -11.34 c
0 -5.06 h
f
2017 778 m
-5.12 0 -9.78 -2.23 -12.65 -6 c
-3.57 -5.03 -5.35 -12.73 -5.35 -23.34 c
0 -19.37 6.21 -29.66 18 -29.66 c
11.63 0 18 10.29 18 29.17 c
0 11.18 -1.71 18.64 -5.36 23.83 c
-2.87 3.84 -7.45 6 -12.64 6 c
h
2017 772 m
7.36 0 11 -7.77 11 -23.14 c
0 -16.26 -3.56 -23.86 -11.16 -23.86 c
-7.2 0 -10.84 7.93 -10.84 23.62 c
0 15.69 3.64 23.38 11 23.38 c
h
f
2056.5 806 m
-4.12 0 -7.87 -1.86 -10.19 -5 c
-2.87 -3.89 -4.31 -9.84 -4.31 -18.05 c
0 -14.98 5 -22.95 14.5 -22.95 c
9.38 0 14.5 7.96 14.5 22.57 c
0 8.65 -1.37 14.42 -4.31 18.43 c
-2.31 3.2 -6 5 -10.19 5 c
h
2056.5 801 m
6.35 0 9.5 -5.95 9.5 -17.72 c
0 -12.45 -3.08 -18.28 -9.64 -18.28 c
-6.22 0 -9.36 6.07 -9.36 18.09 c
0 12.02 3.14 17.91 9.5 17.91 c
h
f
1 i
2202.5 836 0 15.5 P
2202.5 2923.5 0 -15.5 P
2314 836 0 15.5 P
2314 2923.5 0 -15.5 P
2393 836 0 15.5 P
2393 2923.5 0 -15.5 P
2454.5 836 0 15.5 P
2454.5 2923.5 0 -15.5 P
2504.5 836 0 15.5 P
2504.5 2923.5 0 -15.5 P
2547 836 0 15.5 P
2547 2923.5 0 -15.5 P
2583.5 836 0 15.5 P
2583.5 2923.5 0 -15.5 P
2616 836 0 15.5 P
2616 2923.5 0 -15.5 P
2645 836 0 31.5 P
2645 2923.5 0 -31.5 S
0.2 i
2604 761.6 0 -40.6 7 0 0 57 -4.7 0 P
-2.51 -8.77 -4.13 -9.97 -15.14 -11.34 c
0 -5.06 h
f
2649 778 m
-5.12 0 -9.78 -2.23 -12.65 -6 c
-3.57 -5.03 -5.35 -12.73 -5.35 -23.34 c
0 -19.37 6.21 -29.66 18 -29.66 c
11.63 0 18 10.29 18 29.17 c
0 11.18 -1.71 18.64 -5.36 23.83 c
-2.87 3.84 -7.45 6 -12.64 6 c
h
2649 772 m
7.36 0 11 -7.77 11 -23.14 c
0 -16.26 -3.56 -23.86 -11.16 -23.86 c
-7.2 0 -10.84 7.93 -10.84 23.62 c
0 15.69 3.64 23.38 11 23.38 c
h
f
2689 793.05 0 -32.05 5 0 0 45 -3.66 0 P
-1.96 -6.92 -3.22 -7.87 -11.81 -8.95 c
0 -4 h
f
1 i
2835 836 0 15.5 P
2835 2923.5 0 -15.5 P
2946.5 836 0 15.5 P
2946.5 2923.5 0 -15.5 P
3025.5 836 0 15.5 P
3025.5 2923.5 0 -15.5 P
3087 836 0 15.5 P
3087 2923.5 0 -15.5 P
3137 836 0 15.5 P
3137 2923.5 0 -15.5 P
3179 836 0 15.5 P
3179 2923.5 0 -15.5 P
3216 836 0 15.5 P
3216 2923.5 0 -15.5 P
3248 836 0 15.5 P
3248 2923.5 0 -15.5 P
3277 836 0 31.5 P
3277 2923.5 0 -31.5 S
0.2 i
3236 761.6 0 -40.6 7 0 0 57 -4.7 0 P
-2.51 -8.77 -4.13 -9.97 -15.14 -11.34 c
0 -5.06 h
f
3281 778 m
-5.12 0 -9.78 -2.23 -12.65 -6 c
-3.57 -5.03 -5.35 -12.73 -5.35 -23.34 c
0 -19.37 6.21 -29.66 18 -29.66 c
11.63 0 18 10.29 18 29.17 c
0 11.18 -1.71 18.64 -5.36 23.83 c
-2.87 3.84 -7.45 6 -12.64 6 c
h
3281 772 m
7.36 0 11 -7.77 11 -23.14 c
0 -16.26 -3.56 -23.86 -11.16 -23.86 c
-7.2 0 -10.84 7.93 -10.84 23.62 c
0 15.69 3.64 23.38 11 23.38 c
h
f
3335.68 766 -23.32 0 P
0.56 3.73 2.57 6.11 8 9.39 c
6.25 3.47 p
6.19 3.47 9.38 8.16 9.38 13.76 c
0 3.8 -1.5 7.33 -4.12 9.77 c
-2.62 2.45 -5.87 3.61 -10.06 3.61 c
-5.62 0 -9.8 -2 -12.24 -5.75 c
-1.56 -2.37 -2.25 -5.12 -2.37 -9.62 c
5.64 0 p
0.19 2.95 0.58 4.72 1.35 6.13 c
1.48 2.64 4.43 4.23 7.82 4.23 c
5.13 0 8.98 -3.61 8.98 -8.42 c
0 -3.54 -2.12 -6.58 -6.16 -8.86 c
-5.9 -3.29 p
-9.5 -5.31 -12.25 -9.55 -12.77 -19.43 c
29.51 0 h
f
1 i
3467.5 836 0 15.5 P
3467.5 2923.5 0 -15.5 S
1380 836 2087.5 2087.5 re
S
0.2 i
1062 1413 0 17.98 P
0 4.48 -1.34 8.01 -4.09 11.07 c
-3.14 3.45 -6.83 4.95 -12.1 4.95 c
-10.76 0 -16.82 -6.32 -16.82 -17.54 c
0 -23.46 58 0 0 7 h
1056 1413 -21 0 0 15.01 P
0 6.89 3.94 10.99 10.5 10.99 c
6.56 0 10.5 -4.11 10.5 -10.99 c
h
f
1044 1472.92 m
0 -11.79 8.41 -18.92 22.5 -18.92 c
14.09 0 22.5 7.05 22.5 19 c
0 11.79 -8.41 19 -22.18 19 c
-14.49 0 -22.82 -6.98 -22.82 -19.08 c
h
1050 1473 m
0 7.52 6.23 12 16.74 12 c
9.95 0 16.26 -4.64 16.26 -12 c
0 -7.44 -6.23 -12 -16.5 -12 c
-10.19 0 -16.5 4.56 -16.5 12 c
h
f
1087 1539.32 -42 12.32 0 -7.52 32.72 -8.32 -32.72 -8.24 0 -8.16 32.72 -8 -32.72 -8.56 
0 -7.36 42 12.16 0 7.52 -32.88 8.08 32.88 8.48 H
f
1068 1594 m
-6.29 0 -10.07 -0.48 -13.14 -1.69 c
-6.77 -2.73 -10.86 -9.16 -10.86 -17.03 c
0 -11.73 8.97 -19.28 22.74 -19.28 c
13.77 0 22.26 7.32 22.26 19.14 c
0 9.65 -5.5 16.33 -14.72 18.02 c
0 -6.76 p
5.73 -1.85 8.72 -5.63 8.72 -11.02 c
0 -4.26 -2 -7.88 -5.66 -10.13 c
-2.5 -1.61 -5 -2.17 -9.34 -2.25 c
h
1063 1563.32 m
-7.88 0.56 -13 5.28 -13 12 c
0 6.56 5.52 11.6 12.51 11.6 c
0.16 0 0.32 0 0.49 -0.08 c
h
f
1045.2 1604 41.8 0 0 7 -21.71 0 P
-5.98 0 -9.89 1.43 -12.21 4.45 c
-1.52 1.96 -1.99 3.85 -2.08 8.23 c
-6.76 0 p
-0.16 -1.09 -0.24 -1.64 -0.24 -2.5 c
0 -4.22 2.56 -7.43 8.78 -11.18 c
-7.58 0 h
f
1056.76 1682.04 m
-8.16 -0.08 -12.76 -5.48 -12.76 -15.09 c
0 -9.68 5.07 -15.95 12.87 -15.95 c
6.59 0 9.73 3.36 12.14 13.28 c
1.53 6.24 p
1.13 4.64 2.82 6.48 5.87 6.48 c
3.94 0 6.59 -3.96 6.59 -9.85 c
0 -3.63 -1.08 -6.7 -2.91 -8.39 c
-1.25 -1.05 -2.49 -1.53 -5.57 -1.94 c
0 -7.1 p
9.79 0.32 14.48 5.81 14.48 16.86 c
0 10.64 -5.23 17.43 -13.35 17.43 c
-6.27 0 -9.73 -3.52 -11.74 -11.84 c
-1.53 -6.4 p
-1.29 -5.44 -3.05 -7.76 -6.03 -7.76 c
-3.86 0 -6.36 3.4 -6.36 8.78 c
0 5.3 2.34 8.14 6.76 8.3 c
h
f
1104.44 1691 0 7 -21.44 0 P
4.15 3.54 6 7.49 6 12.96 c
0 10.87 -8.73 18.04 -22.1 18.04 c
-14.09 0 -22.9 -7.02 -22.9 -18.37 c
0 -5.79 2.57 -10.45 7.52 -13.63 c
-6.3 0 0 -6 h
1050 1709.76 m
0 7.41 6.59 12.24 16.75 12.24 c
9.67 0 16.25 -4.91 16.25 -12.24 c
0 -7.09 -6.5 -11.76 -16.5 -11.76 c
-10 0 -16.5 4.67 -16.5 11.76 c
h
f
1068 1772 m
-6.29 0 -10.07 -0.48 -13.14 -1.69 c
-6.77 -2.73 -10.86 -9.16 -10.86 -17.03 c
0 -11.73 8.97 -19.28 22.74 -19.28 c
13.77 0 22.26 7.32 22.26 19.14 c
0 9.65 -5.5 16.33 -14.72 18.02 c
0 -6.76 p
5.73 -1.85 8.72 -5.63 8.72 -11.02 c
0 -4.26 -2 -7.88 -5.66 -10.13 c
-2.5 -1.61 -5 -2.17 -9.34 -2.25 c
h
1063 1741.32 m
-7.88 0.56 -13 5.28 -13 12 c
0 6.56 5.52 11.6 12.51 11.6 c
0.16 0 0.32 0 0.49 -0.08 c
h
f
1059.16 1813.68 m
-4.13 -0.33 -6.81 -1.22 -9.16 -2.84 c
-3.77 -2.92 -6 -8.03 -6 -13.95 c
0 -11.43 8.97 -18.89 22.9 -18.89 c
13.53 0 22.1 7.3 22.1 18.81 c
0 10.14 -6.06 16.54 -16.4 17.35 c
0 -6.83 p
6.93 -1.14 10.4 -4.63 10.4 -10.39 c
0 -7.47 -6.07 -11.94 -16.09 -11.94 c
-10.6 0 -16.91 4.39 -16.91 11.78 c
0 5.69 3.3 9.26 9.16 10.07 c
h
f
1045 1836 0 -6 -11.44 0 0 -7 ^ 0 -6 5 0 ^ 
32.24 0 P
4.32 0 6.76 2.77 6.76 7.77 c
0 1.54 -0.16 3.07 -0.57 5.23 c
-5.75 0 p
0.24 -0.77 0.32 -1.68 0.32 -2.79 c
0 -2.51 -0.81 -3.21 -3.82 -3.21 c
-29.18 0 0 6 h
f
1045.2 1844 41.8 0 0 7 -21.71 0 P
-5.98 0 -9.89 1.43 -12.21 4.45 c
-1.52 1.96 -1.99 3.85 -2.08 8.23 c
-6.76 0 p
-0.16 -1.09 -0.24 -1.64 -0.24 -2.5 c
0 -4.22 2.56 -7.43 8.78 -11.18 c
-7.58 0 h
f
1087.15 1903 -42.15 0 0 -7 23.81 0 P
8.58 0 14.19 -4.46 14.19 -11.39 c
0 -5.26 -3.21 -8.61 -8.26 -8.61 c
-29.74 0 0 -7 32.5 0 p
7 0 11.5 5.32 11.5 13.67 c
0 6.3 -2.17 10.32 -7.72 14.33 c
5.87 0 h
f
1045.2 1915 41.8 0 0 7 -26.12 0 P
-6.04 0 -10.88 4.25 -10.88 9.5 c
0 4.79 3.02 7.5 8.34 7.5 c
28.66 0 0 7 -26.12 0 p
-6.04 0 -10.88 4.25 -10.88 9.5 c
0 4.71 3.1 7.5 8.34 7.5 c
28.66 0 0 7 -31.35 0 p
-7.5 0 -11.65 -4.3 -11.65 -12.11 c
0 -5.58 1.65 -8.92 6.28 -12.83 c
-4.4 -2.47 -6.28 -5.82 -6.28 -11.23 c
0 -5.58 2.08 -9.24 7.11 -12.83 c
-5.9 0 h
f
1029 2016.92 m
10.45 -7.93 24.94 -12.92 37.45 -12.92 c
12.59 0 27.08 4.99 37.52 12.92 c
0 4.36 p
-11.39 -6.61 -24.77 -10.28 -37.52 -10.28 c
-12.66 0 -26.12 3.68 -37.45 10.28 c
h
f
1029 2029 58 0 0 7 -22.95 0 P
-8.5 0 -14.05 4.48 -14.05 11.36 c
0 2.16 0.72 4.32 1.91 5.92 c
1.35 1.92 3.34 2.72 6.27 2.72 c
28.82 0 0 7 -31.59 0 p
-7.02 0 -11.41 -5.11 -11.41 -13.38 c
0 -6 1.81 -9.65 6.84 -13.62 c
-21.84 0 h
f
1027 2072 5 15 re
f
1026 2104.14 0 3.16 P
0 6.39 2.76 9.69 8.09 9.69 c
5.58 0 8.91 -3.58 8.91 -9.55 c
0 -6.24 -2.92 -9.29 -9.18 -9.68 c
0 -5.72 p
3.53 0.25 5.82 0.89 7.8 1.96 c
4.21 2.27 6.38 6.7 6.38 12.82 c
0 9.23 -5.46 15.17 -13.89 15.17 c
-5.65 0 -8.79 -2.13 -10.62 -7.3 c
-1.63 4.2 -4.77 6.3 -9.23 6.3 c
-7.66 0 -12.26 -5.18 -12.26 -13.8 c
0 -9.14 4.87 -14 14.28 -14.19 c
0 5.81 p
-2.62 0.07 -4.09 0.33 -5.43 1.06 c
-2.38 1.32 -3.85 4.23 -3.85 7.86 c
0 5.16 2.78 8.26 7.3 8.26 c
3.02 0 4.83 -1.23 5.79 -3.89 c
0.61 -1.63 0.85 -3.75 0.91 -7.97 c
h
f
1087 2185.52 -48.88 16.48 48.88 0 0 7 -58 0 0 -10.35 50.48 -17 -50.48 -17.31 
0 -10.34 58 0 0 7 -48.88 0 48.88 16.64 H
f
1104.44 2219 0 7 -21.44 0 P
4.15 3.54 6 7.49 6 12.96 c
0 10.87 -8.73 18.04 -22.1 18.04 c
-14.09 0 -22.9 -7.02 -22.9 -18.37 c
0 -5.79 2.57 -10.45 7.52 -13.63 c
-6.3 0 0 -6 h
1050 2237.76 m
0 7.41 6.59 12.24 16.75 12.24 c
9.67 0 16.25 -4.91 16.25 -12.24 c
0 -7.09 -6.5 -11.76 -16.5 -11.76 c
-10 0 -16.5 4.67 -16.5 11.76 c
h
f
1059.16 2296.68 m
-4.13 -0.33 -6.81 -1.22 -9.16 -2.84 c
-3.77 -2.92 -6 -8.03 -6 -13.95 c
0 -11.43 8.97 -18.89 22.9 -18.89 c
13.53 0 22.1 7.3 22.1 18.81 c
0 10.14 -6.06 16.54 -16.4 17.35 c
0 -6.83 p
6.93 -1.14 10.4 -4.63 10.4 -10.39 c
0 -7.47 -6.07 -11.94 -16.09 -11.94 c
-10.6 0 -16.91 4.39 -16.91 11.78 c
0 5.69 3.3 9.26 9.16 10.07 c
h
f
1026 2313.14 0 3.16 P
0 6.39 2.76 9.69 8.09 9.69 c
5.58 0 8.91 -3.58 8.91 -9.55 c
0 -6.24 -2.92 -9.29 -9.18 -9.68 c
0 -5.72 p
3.53 0.25 5.82 0.89 7.8 1.96 c
4.21 2.27 6.38 6.7 6.38 12.82 c
0 9.23 -5.46 15.17 -13.89 15.17 c
-5.65 0 -8.79 -2.13 -10.62 -7.3 c
-1.63 4.2 -4.77 6.3 -9.23 6.3 c
-7.66 0 -12.26 -5.18 -12.26 -13.8 c
0 -9.14 4.87 -14 14.28 -14.19 c
0 5.81 p
-2.62 0.07 -4.09 0.33 -5.43 1.06 c
-2.38 1.32 -3.85 4.23 -3.85 7.86 c
0 5.16 2.78 8.26 7.3 8.26 c
3.02 0 4.83 -1.23 5.79 -3.89 c
0.61 -1.63 0.85 -3.75 0.91 -7.97 c
h
f
1103.96 2342.57 m
-10.43 8.24 -24.93 13.43 -37.43 13.43 c
-12.59 0 -27.08 -5.19 -37.53 -13.43 c
0 -4.53 p
11.4 7.04 24.78 10.96 37.53 10.96 c
12.66 0 26.12 -3.92 37.43 -10.96 c
h
f
2239 659 -7 0 0 -58 ^ 0 16.32 6.54 6.4 14.29 -22.72 8.32 0 
-17.29 27.49 14.7 14.51 -8.64 0 -17.93 -17.84 H
f
2309.92 659 m
-7.93 -10.45 -12.92 -24.94 -12.92 -37.45 c
0 -12.59 4.99 -27.08 12.92 -37.52 c
4.36 0 p
-6.61 11.39 -10.28 24.77 -10.28 37.52 c
0 12.66 3.68 26.13 10.28 37.45 c
h
f
2322 659 0 -58 7 0 0 22.95 P
0 8.5 4.48 14.05 11.36 14.05 c
2.16 0 4.32 -0.72 5.92 -1.91 c
1.92 -1.35 2.72 -3.34 2.72 -6.27 c
0 -28.82 7 0 0 31.59 p
0 7.02 -5.11 11.41 -13.38 11.41 c
-6 0 -9.65 -1.81 -13.62 -6.84 c
0 21.84 h
f
2421.52 601 16.48 48.88 0 -48.88 7 0 0 58 -10.35 0 -17 -50.48 -17.31 50.48 
-10.34 0 0 -58 7 0 0 48.88 16.64 -48.88 H
f
2455 583.56 7 0 0 21.44 P
3.54 -4.15 7.49 -6 12.96 -6 c
10.87 0 18.04 8.73 18.04 22.1 c
0 14.09 -7.02 22.9 -18.37 22.9 c
-5.79 0 -10.45 -2.57 -13.63 -7.52 c
0 6.3 -6 0 h
2473.76 638 m
7.41 0 12.24 -6.59 12.24 -16.75 c
0 -9.67 -4.91 -16.25 -12.24 -16.25 c
-7.09 0 -11.76 6.5 -11.76 16.5 c
0 10 4.67 16.5 11.76 16.5 c
h
f
2532.68 628.84 m
-0.33 4.13 -1.22 6.81 -2.84 9.16 c
-2.92 3.77 -8.03 6 -13.95 6 c
-11.43 0 -18.89 -8.97 -18.89 -22.9 c
0 -13.53 7.3 -22.1 18.81 -22.1 c
10.14 0 16.54 6.06 17.35 16.4 c
-6.83 0 p
-1.14 -6.93 -4.63 -10.4 -10.39 -10.4 c
-7.47 0 -11.94 6.07 -11.94 16.09 c
0 10.6 4.39 16.91 11.78 16.91 c
5.69 0 9.26 -3.3 10.07 -9.16 c
h
f
2538 656 15 5 re
f
2573 673.05 0 -32.05 5 0 0 45 -3.66 0 P
-1.96 -6.92 -3.22 -7.87 -11.81 -8.95 c
0 -4 h
f
2599.57 584.04 m
8.24 10.43 13.43 24.93 13.43 37.44 c
0 12.58 -5.19 27.08 -13.43 37.52 c
-4.53 0 p
7.04 -11.4 10.96 -24.78 10.96 -37.52 c
0 -12.66 -3.92 -26.12 -10.96 -37.44 c
h
f
255 0 r3
2050.07 2189.01 -25.62 17.94 -3.35 -4.79 19.14 -13.4 -37.77 -10.28 -3.44 -4.91 27.92 -19.55 3.35 4.78 
-21.3 14.91 37.68 10.43 H
f
2081.19 2150.63 -31.72 22.21 -3.21 -4.59 31.72 -22.21 H
2073.3 2139.36 -31.72 22.21 -3.21 -4.59 31.71 -22.21 H
f
2108.14 2146.21 -23.17 -33.09 5.77 -4.04 32.54 46.46 -3.8 2.66 P
-7.04 -5.72 -9.03 -5.79 -18.73 -0.66 c
-2.89 -4.13 h
f
2155.55 2133.84 m
-4.32 3.03 -9.59 3.88 -14.26 2.37 c
-5.86 -1.95 -11.73 -7.12 -17.73 -15.71 c
-10.97 -15.66 -11.55 -27.66 -1.59 -34.63 c
9.83 -6.88 21.03 -2.32 31.72 12.95 c
6.33 9.04 9.11 16.08 8.97 22.43 c
-0.13 4.97 -2.71 9.52 -7.1 12.59 c
h
2151.98 2128.73 m
6.22 -4.36 4.9 -12.8 -3.82 -25.26 c
-9.22 -13.17 -16.55 -17.22 -22.97 -12.72 c
-6.09 4.27 -4.68 12.85 4.23 25.56 c
8.9 12.71 16.34 16.78 22.57 12.42 c
h
f
2191.55 2107.84 m
-4.32 3.03 -9.59 3.88 -14.26 2.37 c
-5.86 -1.95 -11.73 -7.12 -17.73 -15.71 c
-10.97 -15.66 -11.55 -27.66 -1.59 -34.63 c
9.83 -6.88 21.03 -2.32 31.72 12.95 c
6.33 9.04 9.11 16.08 8.97 22.43 c
-0.13 4.97 -2.71 9.52 -7.1 12.59 c
h
2187.98 2102.73 m
6.22 -4.36 4.9 -12.8 -3.82 -25.26 c
-9.22 -13.17 -16.55 -17.22 -22.97 -12.72 c
-6.09 4.27 -4.68 12.85 4.23 25.56 c
8.9 12.71 16.34 16.78 22.57 12.42 c
h
f
2228.55 2082.84 m
-4.32 3.03 -9.59 3.88 -14.26 2.37 c
-5.86 -1.95 -11.73 -7.12 -17.73 -15.71 c
-10.97 -15.66 -11.55 -27.66 -1.59 -34.63 c
9.83 -6.88 21.03 -2.32 31.72 12.95 c
6.33 9.04 9.11 16.08 8.97 22.43 c
-0.13 4.97 -2.71 9.52 -7.1 12.59 c
h
2224.98 2077.73 m
6.22 -4.36 4.9 -12.8 -3.82 -25.26 c
-9.22 -13.17 -16.55 -17.22 -22.97 -12.72 c
-6.09 4.27 -4.68 12.85 4.23 25.56 c
8.9 12.71 16.34 16.78 22.57 12.42 c
h
f
255 0 r5
2050.07 2418.01 -25.62 17.94 -3.35 -4.79 19.14 -13.4 -37.77 -10.28 -3.44 -4.91 27.92 -19.55 3.35 4.78 
-21.3 14.91 37.68 10.43 H
f
2081.19 2379.63 -31.72 22.21 -3.21 -4.59 31.72 -22.21 H
2073.3 2368.36 -31.72 22.21 -3.21 -4.59 31.71 -22.21 H
f
2105.15 2336.48 -24.45 17.11 P
3.25 3.39 7.05 4.34 15.09 3.7 c
9.03 -1.05 p
8.96 -1 15.66 1.44 19.65 7.14 c
2.71 3.87 3.66 8.57 2.65 12.99 c
-1.01 4.41 -3.59 7.98 -7.98 11.05 c
-5.9 4.13 -11.76 5.11 -17.07 2.96 c
-3.38 -1.34 -6.12 -3.72 -9.55 -8.35 c
5.77 -4.04 p
2.4 3.01 4.12 4.63 5.96 5.59 c
3.48 1.76 7.69 1.36 11.16 -1.07 c
5.24 -3.67 6.56 -10.16 3.07 -15.14 c
-2.57 -3.67 -6.93 -5.3 -12.71 -4.77 c
-8.41 0.81 p
-13.55 1.29 -19.45 -1.13 -27.13 -10.98 c
30.93 -21.66 h
f
2155.55 2362.84 m
-4.32 3.03 -9.59 3.88 -14.26 2.37 c
-5.86 -1.95 -11.73 -7.12 -17.73 -15.71 c
-10.97 -15.66 -11.55 -27.66 -1.59 -34.63 c
9.83 -6.88 21.03 -2.32 31.72 12.95 c
6.33 9.04 9.11 16.08 8.97 22.43 c
-0.13 4.97 -2.71 9.52 -7.1 12.59 c
h
2151.98 2357.73 m
6.22 -4.36 4.9 -12.8 -3.82 -25.26 c
-9.22 -13.17 -16.55 -17.22 -22.97 -12.72 c
-6.09 4.27 -4.68 12.85 4.23 25.56 c
8.9 12.71 16.34 16.78 22.57 12.42 c
h
f
2191.55 2336.84 m
-4.32 3.03 -9.59 3.88 -14.26 2.37 c
-5.86 -1.95 -11.73 -7.12 -17.73 -15.71 c
-10.97 -15.66 -11.55 -27.66 -1.59 -34.63 c
9.83 -6.88 21.03 -2.32 31.72 12.95 c
6.33 9.04 9.11 16.08 8.97 22.43 c
-0.13 4.97 -2.71 9.52 -7.1 12.59 c
h
2187.98 2331.73 m
6.22 -4.36 4.9 -12.8 -3.82 -25.26 c
-9.22 -13.17 -16.55 -17.22 -22.97 -12.72 c
-6.09 4.27 -4.68 12.85 4.23 25.56 c
8.9 12.71 16.34 16.78 22.57 12.42 c
h
f
255 0 r6
2050.07 2623.01 -25.62 17.94 -3.35 -4.79 19.14 -13.4 -37.77 -10.28 -3.44 -4.91 27.92 -19.55 3.35 4.78 
-21.3 14.91 37.68 10.43 H
f
2081.19 2584.63 -31.72 22.21 -3.21 -4.59 31.72 -22.21 H
2073.3 2573.36 -31.72 22.21 -3.21 -4.59 31.71 -22.21 H
f
2097.23 2555.14 -7.8 -11.14 5.77 -4.04 ^ 6.88 -4.82 3.63 5.18 ^ 21.11 30.14 
-4.26 2.98 -41.57 -14.45 -4.27 -6.09 H
2100.86 2560.31 -14.55 10.19 28.77 10.13 H
f
2171.61 2555.6 -31.06 21.75 -3.99 -5.7 25.1 -17.57 P
-22.14 -8.04 -33.45 -14.57 -47.61 -27.41 c
6.16 -4.31 p
12.97 13.09 27.75 21.78 48.01 28.4 c
h
f
7.5 w
1 i
255 0 r3
1583 2372 190.5 -116.5 111.5 -50.5 79 -39.5 61 -49 50 -28 42.5 -17 36.5 -28.5 
32.5 -16.5 29 -24 26 -11 24 -19.5 22 -12 20.5 -11 19 -16.5 17.5 -10.5 
16.5 -7 16 -14 14.5 -5 14.5 -12 13 -9 13 -7 12 -8 12 -7.5 
11 -7.5 11 -9 10 -5 10 -9.5 10 -6.5 9 -4.5 9 -8 9 -4 
8.5 -8 8 -5.5 8 -5.5 7.5 -5 7.5 -7.5 7.5 -3.5 7 -7 7 -5 
7 -6 6.5 -5 6.5 -6 6.5 -6 6 -4.5 6 -6 6 -5.5 5.5 -6 
6 -6 5.5 -5.5 5.5 -5.5 5 -7 5.5 -5.5 5 -6 5 -7.5 5 -6.5 
5 -6.5 4.5 -7 5 -7 4.5 -6.5 4.5 -8 4.5 -8.5 4.5 -7.5 4 -9.5 
4.5 -7.5 4 -10.5 4.5 -10 4 -10 4 -10.5 4 -12 3.5 -12 4 -15 
4 -14 3.5 -16 4 -18 3.5 -21 3.5 -22.5 3.5 -27 3.5 -30.5 3.5 -40 
3.5 -55.5 3.5 -86 3 -172 3.5 127 3 100 3.5 56.5 3 38.5 3 30 
3.5 22.5 3 19 3 16 3 13 3 12 3 9 2.5 9 3 7 
3 6 2.5 5.5 3 4 3 4.5 2.5 2.5 2.5 3 3 1.5 2.5 1 
2.5 0.5 S
2861 1494.5 3 -0.5 2.5 -1 2.5 -1 2.5 -2 2.5 -2.5 2.5 -3 2.5 -4.5 
2.5 -5 2.5 -5 2 -5.5 2.5 -7 2.5 -9 2 -8 2.5 -10.5 2.5 -12 
2 -13 2.5 -15 2 -18 2.5 -21 2 -24.5 2.5 -30.5 2 -39.5 2 -54.5 
2 -89.5 2.5 -171.5 2 155.5 2 93.5 2 55 2 38.5 2 28.5 2 23 
2 19 2 15.5 2 12.5 2 10.5 2 9 2 7 2 6.5 2 4.5 
2 3.5 1.5 2 2 1.5 2 0 2 -1 1.5 -1.5 2 -3.5 2 -4 
1.5 -5.5 2 -6.5 1.5 -8.5 2 -10 1.5 -11.5 2 -14.5 1.5 -16 2 -20 
1.5 -24.5 2 -31 1.5 -40.5 1.5 -58 2 -97.5 1.5 -116.5 1.5 147.5 2 81 
1.5 50.5 1.5 36 1.5 27 1.5 21 2 17.5 1.5 14 1.5 11 1.5 9 
1.5 6.5 1.5 5 1.5 4 1.5 2 1.5 0 2 -1 1.5 -3 1.5 -4 
1 -6.5 1.5 -7.5 1.5 -10 1.5 -12.5 1.5 -15.5 1.5 -18.5 1.5 -23 1.5 -30 
1.5 -38.5 1.5 -55.5 1 -87 1.5 -78 1.5 103 1.5 75 1.5 49 1 34.5 
1.5 26.5 1.5 20.5 1 16 1.5 12.5 1.5 9.5 1.5 7.5 1 4.5 1.5 3.5 
1 1 S
3050 1360.5 1.5 -1 1.5 -3.5 1 -4.5 1.5 -7.5 1 -9.5 1.5 -13 1.5 -15.5 
1 -19.5 1.5 -25 1 -32.5 1.5 -43 1 -59.5 1.5 -67 1 20.5 1.5 67 
1 52 1 37.5 1.5 28 1 21.5 1.5 16.5 1 13 1 9.5 1.5 6.5 
1 4.5 1.5 2 1 -1 1 -3 1.5 -5 1 -8 1 -10.5 1 -14.5 
1.5 -18 1 -22.5 1 -29 1.5 -35.5 1 -44 1 -37.5 1 6.5 1 41 
1.5 40.5 1 32.5 1 25 1 20 1 15 1.5 11.5 1 7.5 1 5.5 
1 2.5 1 0 1 -3 1 -5.5 1.5 -8.5 1 -11 1 -14.5 1 -18 
1 -22.5 1 -26.5 1 -28.5 1 -23 1 -4.5 1 17.5 1 26 1 25.5 
1 21.5 1 18 1 13.5 1 10 1 7.5 1 4 1 1.5 1 -1.5 
1 -4 1 -6.5 1 -9.5 1 -12 1 -14.5 1 -17 1 -19 1 -15.5 
0.5 -10.5 1 -1 1 9 1 15 1 15.5 1 14.5 1 12 1 10 
0.5 6.5 1 4 1 1.5 1 -1 1 -3 1 -5.5 0.5 -8.5 1 -9.5 
1 -11 1 -11.5 1 -10 0.5 -6.5 1 -1.5 1 2.5 1 7 1 8.5 
0.5 9 S
3161 1232.5 1 8 1 6.5 1 4 0.5 2 1 0 1 -2.5 0.5 -4 
1 -6 1 -8 1 -8.5 0.5 -8 1 -7 1 -3.5 0.5 0 1 3 
1 6.5 0.5 7 1 7 1 6.5 0.5 4.5 1 3 1 0 0.5 -1 
1 -3.5 1 -5.5 0.5 -7.5 1 -8.5 0.5 -9 1 -8 1 -6 0.5 -2.5 
1 1.5 0.5 5 1 7 1 8 0.5 7 1 6.5 0.5 4 1 2.5 
0.5 0 1 -1.5 0.5 -4 1 -5 1 -6 0.5 -7.5 1 -6.5 0.5 -6 
1 -3.5 0.5 -0.5 1 1.5 0.5 3.5 1 5 0.5 4.5 1 4.5 0.5 3 
1 1.5 0.5 0 1 -1.5 0.5 -2.5 1 -4 0.5 -4.5 1 -4.5 0.5 -3.5 
1 -2.5 0.5 -1 0.5 1 1 2.5 0.5 3 1 3 0.5 3 1 2 
0.5 1.5 0.5 0 1 -1.5 0.5 -2 1 -3 0.5 -4 1 -4 0.5 -3.5 
0.5 -3 1 -1.5 0.5 -0.5 1 0.5 0.5 1.5 0.5 2 1 1.5 0.5 2 
0.5 1 1 0.5 0.5 0 0.5 -1 1 -1 0.5 -1.5 1 -1 0.5 -1.5 
0.5 -1 1 -1 0.5 -0.5 0.5 0 1 0 0.5 0.5 0.5 0 1 0 
0.5 0 S
3240 1186 0.5 -0.5 1 0 0.5 -0.5 0.5 -0.5 0.5 -1 1 -0.5 0.5 -0.5 
0.5 -1 1 -1 0.5 -1 0.5 -1 0.5 -1.5 1 -1.5 0.5 -1 0.5 -1 
1 -0.5 0.5 0 0.5 0.5 0.5 0.5 1 1 0.5 0.5 0.5 1 0.5 0.5 
1 -0.5 0.5 -0.5 0.5 -1 0.5 -1.5 1 -1.5 0.5 -2 0.5 -1.5 0.5 -1 
1 -0.5 0.5 0 0.5 1 0.5 1 0.5 1.5 1 1.5 0.5 0.5 0.5 1 
0.5 -0.5 0.5 -0.5 1 -1.5 0.5 -2 0.5 -2 0.5 -2 0.5 -2 1 -1 
0.5 -1 0.5 0.5 0.5 0.5 0.5 1 0.5 1 1 1 0.5 1 0.5 0 
0.5 -0.5 0.5 -1 0.5 -1 1 -2 0.5 -1.5 0.5 -1.5 0.5 -1 0.5 -1 
0.5 -0.5 0.5 0 1 0 0.5 0.5 0.5 0 0.5 0.5 0.5 0 0.5 0 
0.5 -0.5 1 -0.5 0.5 -0.5 0.5 -0.5 0.5 -0.5 0.5 -0.5 0.5 -0.5 0.5 -0.5 
0.5 -0.5 0.5 -0.5 1 -0.5 0.5 -1 0.5 -0.5 0.5 -0.5 0.5 -0.5 0.5 -0.5 
0.5 0 0.5 0 0.5 0.5 0.5 0 0.5 0.5 0.5 0 1 0 0.5 0 S
255 0 r5
1583 2590.5 190.5 -117 111.5 -50 79 -39.5 61 -49 50 -28 42.5 -17 36.5 -28.5 
32.5 -16.5 29 -24 26 -11 24 -19.5 22 -12 20.5 -11.5 19 -16.5 17.5 -10 
16.5 -7 16 -14 14.5 -5.5 14.5 -12.5 13 -8.5 13 -7 12 -8.5 12 -7 
11 -8 11 -9 10 -5.5 10 -9.5 10 -6.5 9 -5 9 -8 9 -4 
8.5 -9 8 -5.5 8 -6 7.5 -5.5 7.5 -8 7.5 -4.5 7 -7.5 7 -5.5 
7 -7 6.5 -5.5 6.5 -6.5 6.5 -7.5 6 -5.5 6 -6.5 6 -7.5 5.5 -7 
6 -7.5 5.5 -7 5.5 -7 5 -8.5 5.5 -7.5 5 -8 5 -9 5 -9 
5 -10 4.5 -9 5 -10 4.5 -10 4.5 -12 4.5 -11.5 4.5 -12.5 4 -14 
4.5 -13 4 -16.5 4.5 -17 4 -18 4 -19 4 -23.5 3.5 -24 4 -31 
4 -34.5 3.5 -43 4 -55 3.5 -66.5 3.5 -30 3.5 48.5 3.5 52 3.5 38.5 
3.5 28 3.5 21.5 3 17 3.5 13.5 3 10.5 3.5 7 3 6 3 4.5 
3.5 2 3 1 3 -0.5 3 -2 3 -2.5 3 -5.5 2.5 -5 3 -7.5 
3 -9 2.5 -11 3 -13.5 3 -13.5 2.5 -18 2.5 -20 3 -25.5 2.5 -30.5 
2.5 -39 S
2861 1414 3 -52 2.5 -70.5 2.5 -59 2.5 52.5 2.5 64 2.5 45.5 2.5 31 
2.5 24 2.5 17.5 2 14 2.5 10 2.5 6.5 2 4.5 2.5 1.5 2.5 -0.5 
2 -2.5 2.5 -5.5 2 -7.5 2.5 -11 2 -13.5 2.5 -17 2 -21.5 2 -27.5 
2 -36 2.5 -49 2 -66 2 -60.5 2 48.5 2 65 2 46.5 2 32.5 
2 24.5 2 18 2 13 2 8.5 2 5.5 2 2.5 2 -0.5 2 -3.5 
2 -7 1.5 -10 2 -14.5 2 -19 2 -25 1.5 -33 2 -45 2 -61.5 
1.5 -58 2 35 1.5 64 2 46 1.5 33.5 2 24 1.5 17.5 2 12 
1.5 7.5 2 4 1.5 -0.5 1.5 -3.5 2 -8 1.5 -11.5 1.5 -17 2 -23.5 
1.5 -31 1.5 -42.5 1.5 -58.5 1.5 -51.5 2 31 1.5 59 1.5 45.5 1.5 31.5 
1.5 23 1.5 16 1.5 10.5 1.5 5.5 1.5 1 2 -3 1.5 -8 1.5 -13 
1 -18.5 1.5 -26 1.5 -36 1.5 -48 1.5 -55.5 1.5 -6.5 1.5 52 1.5 48.5 
1.5 35 1.5 25 1 17 1.5 11 1.5 5.5 1.5 0.5 1.5 -5 1 -9.5 
1.5 -16 1.5 -23 1 -32 1.5 -42.5 1.5 -50 1.5 -16 1 40 1.5 46 
1 35 S
3050 1299 1.5 25 1.5 16.5 1 10.5 1.5 3.5 1 -1 1.5 -7 1.5 -12.5 
1 -20 1.5 -28 1 -37 1.5 -42.5 1 -21.5 1.5 26.5 1 40.5 1.5 34 
1 24 1 16.5 1.5 9.5 1 3.5 1.5 -3 1 -8.5 1 -15 1.5 -23 
1 -30 1.5 -35.5 1 -26 1 7.5 1.5 31.5 1 32 1 24.5 1 16.5 
1.5 10 1 3.5 1 -2.5 1.5 -8.5 1 -15.5 1 -21.5 1 -27 1 -27 
1.5 -12 1 12.5 1 25 1 24 1 18.5 1.5 12.5 1 5.5 1 -0.5 
1 -6 1 -12 1 -17.5 1 -21 1.5 -20 1 -8.5 1 7 1 17 
1 18.5 1 14.5 1 9 1 3.5 1 -1.5 1 -7 1 -11.5 1 -15 
1 -14.5 1 -10 1 0.5 1 9 1 13 1 11 1 7.5 1 3 
1 -1.5 1 -5.5 1 -9.5 1 -11 1 -9.5 1 -4.5 1 2.5 1 8.5 
0.5 8.5 1 7 1 3.5 1 -0.5 1 -4.5 1 -8 1 -10 1 -8 
0.5 -4 1 2 1 7.5 1 8.5 1 7 1 4 0.5 0 1 -5 
1 -8 1 -10.5 1 -9.5 0.5 -5.5 1 2 1 7 1 9.5 1 8 
0.5 5 S
3161 1252 1 0.5 1 -3.5 1 -7 0.5 -9.5 1 -9.5 1 -5.5 0.5 0 
1 5 1 8 1 6.5 0.5 4 1 1 1 -2.5 0.5 -5.5 1 -7 
1 -6 0.5 -3 1 1 1 4 0.5 4 1 3.5 1 1 0.5 -2 
1 -3.5 1 -5 0.5 -4 1 -2 0.5 1 1 3 1 4 0.5 3 
1 1 0.5 -2 1 -3.5 1 -5 0.5 -4.5 1 -3 0.5 -0.5 1 2 
0.5 4 1 3 0.5 1.5 1 0.5 1 -2 0.5 -3 1 -3 0.5 -2.5 
1 -1 0.5 0 1 0.5 0.5 1 1 0.5 0.5 0 1 -1.5 0.5 -1.5 
1 -1.5 0.5 -0.5 1 -0.5 0.5 0.5 1 0.5 0.5 0.5 1 0.5 0.5 -0.5 
1 -1.5 0.5 -1 0.5 -1.5 1 -1.5 0.5 -1.5 1 -1 0.5 -0.5 1 0 
0.5 0.5 0.5 1 1 0.5 0.5 0.5 1 -0.5 0.5 -1 1 -1 0.5 -2 
0.5 -1 1 -1 0.5 0.5 1 0.5 0.5 0 0.5 0 1 -1 0.5 -1.5 
0.5 -2 1 -2 0.5 -0.5 0.5 0 1 1.5 0.5 1.5 1 1 0.5 0.5 
0.5 -1 1 -2 0.5 -2.5 0.5 -1.5 1 -0.5 0.5 0 0.5 1.5 1 0.5 
0.5 0.5 S
3240 1187 0.5 -1.5 1 -1.5 0.5 -2 0.5 -2 0.5 -1.5 1 0.5 0.5 1 
0.5 1.5 1 0.5 0.5 0 0.5 -0.5 0.5 -1.5 1 -1.5 0.5 -1 0.5 -0.5 
1 0.5 0.5 0.5 0.5 0.5 0.5 0 1 -1 0.5 -1 0.5 -1 0.5 -1.5 
1 -0.5 0.5 -1 0.5 0 0.5 -0.5 1 0 0.5 0 0.5 0 0.5 -0.5 
1 -0.5 0.5 -0.5 0.5 -1 0.5 -1 0.5 -0.5 1 0 0.5 0 0.5 0.5 
0.5 0.5 0.5 0 1 0 0.5 -1 0.5 -1.5 0.5 -1 0.5 -0.5 1 0 
0.5 0 0.5 0.5 0.5 0.5 0.5 0 0.5 -1 1 -1 0.5 -1.5 0.5 -1 
0.5 -0.5 0.5 0 0.5 0 1 0.5 0.5 0 0.5 -0.5 0.5 -1 0.5 -1 
0.5 -0.5 0.5 -1 1 0 0.5 -0.5 0.5 -0.5 0.5 0 0.5 0 0.5 0 
0.5 -0.5 1 -0.5 0.5 -0.5 0.5 -0.5 0.5 -0.5 0.5 -1 0.5 -0.5 0.5 0 
0.5 0 0.5 0 1 0.5 0.5 0 0.5 -1 0.5 -0.5 0.5 -1 0.5 -1 
0.5 -0.5 0.5 0 0.5 0 0.5 0.5 0.5 0 0.5 0 1 -0.5 0.5 -1 S
255 0 r6
1583 2774.5 190.5 -116.5 111.5 -47.5 79 -39 61 -48 50 -30 42.5 -16 36.5 -27 
32.5 -18 29 -24 26 -12 24 -18.5 22 -11.5 20.5 -12.5 19 -16.5 17.5 -10 
16.5 -5 16 -16 14.5 -6 14.5 -11.5 13 -8 13 -8 12 -7.5 12 -7 
11 -8 11 -9.5 10 -4.5 10 -10 10 -6 9 -6 9 -7.5 9 -4 
8.5 -8.5 8 -5 8 -7.5 7.5 -5 7.5 -8 7.5 -5 7 -7.5 7 -6 
7 -5.5 6.5 -6 6.5 -7 6.5 -7 6 -6.5 6 -4.5 6 -9.5 5.5 -6 
6 -8 5.5 -7 5.5 -7 5 -8 5.5 -7.5 5 -8 5 -9.5 5 -9 
5 -10 4.5 -8.5 5 -9.5 4.5 -9.5 4.5 -12 4.5 -10.5 4.5 -11.5 4 -13 
4.5 -13 4 -14.5 4.5 -14 4 -15.5 4 -16.5 4 -16 3.5 -18 4 -18 
4 -18.5 3.5 -17.5 4 -17 3.5 -14 3.5 -9 3.5 -3.5 3.5 -0.5 3.5 3.5 
3.5 5.5 3.5 5.5 3 5.5 3.5 5 3 3.5 3.5 3.5 3 2 3 0 
3.5 0.5 3 -2.5 3 -3 3 -3.5 3 -5.5 3 -7 2.5 -7.5 3 -8.5 
3 -10 2.5 -12.5 3 -12.5 3 -14.5 2.5 -15.5 2.5 -17 3 -18 2.5 -17 
2.5 -17 S
2861 1607.5 3 -13 2.5 -9 2.5 -3 2.5 2.5 2.5 4.5 2.5 7 2.5 5.5 
2.5 5.5 2.5 4 2 1 2.5 0 2.5 -1.5 2 -4 2.5 -5.5 2.5 -8 
2 -9.5 2.5 -12 2 -12.5 2.5 -15 2 -16 2.5 -16 2 -14 2 -9.5 
2 -4 2.5 1 2 6 2 6.5 2 7 2 5 2 4.5 2 2 
2 -1 2 -2.5 2 -5 2 -8 2 -9.5 2 -11 2 -13 2 -14 
2 -12.5 1.5 -10 2 -5.5 2 0 2 4 1.5 6.5 2 6.5 2 6 
1.5 3.5 2 2 1.5 -1 2 -2.5 1.5 -6 2 -7 1.5 -9.5 2 -10.5 
1.5 -11 2 -10 1.5 -6.5 1.5 -3 2 1.5 1.5 4.5 1.5 5.5 2 5 
1.5 4 1.5 2.5 1.5 -0.5 1.5 -2.5 2 -4.5 1.5 -6 1.5 -7.5 1.5 -9 
1.5 -7.5 1.5 -6 1.5 -3.5 1.5 -0.5 1.5 2.5 2 3.5 1.5 3.5 1.5 3.5 
1 2 1.5 -0.5 1.5 -2 1.5 -3.5 1.5 -5.5 1.5 -6 1.5 -6 1.5 -5.5 
1.5 -3.5 1.5 -1.5 1 1 1.5 2 1.5 2.5 1.5 2 1.5 1.5 1 -0.5 
1.5 -1.5 1.5 -2.5 1 -4.5 1.5 -4 1.5 -4.5 1.5 -3.5 1 -2 1.5 -1 
1 0.5 S
3050 1328.5 1.5 1.5 1.5 1 1 0.5 1.5 0 1 -1 1.5 -1.5 1.5 -3 
1 -3 1.5 -3 1 -2.5 1.5 -1.5 1 -1 1.5 0 1 0.5 1.5 0.5 
1 0 1 -1 1.5 -1 1 -2 1.5 -2 1 -2 1 -2 1.5 -1 
1 -1.5 1.5 0 1 -0.5 1 0 1.5 -0.5 1 -0.5 1 -1 1 -1.5 
1.5 -2 1 -1.5 1 -1 1.5 -1 1 -0.5 1 -1 1 -0.5 1 -0.5 
1.5 -0.5 1 -1 1 -1 1 -1 1 -1.5 1.5 -1 1 -1 1 -0.5 
1 -1 1 -0.5 1 -0.5 1 -1 1.5 -0.5 1 -1 1 -1 1 -1 
1 -1 1 -1 1 -0.5 1 -0.5 1 -1 1 -0.5 1 -1 1 -1 
1 -0.5 1 -1 1 -1 1 -0.5 1 -1 1 -0.5 1 -1 1 -0.5 
1 -0.5 1 -1 1 -0.5 1 -1 1 -0.5 1 -1 1 -0.5 1 -1 
0.5 -0.5 1 -0.5 1 -1 1 -0.5 1 -1 1 -0.5 1 -1 1 -0.5 
0.5 -1 1 -0.5 1 -0.5 1 -0.5 1 -1 1 -0.5 0.5 -1 1 -0.5 
1 -0.5 1 -0.5 1 -1 0.5 -0.5 1 -0.5 1 -1 1 -0.5 1 -0.5 
0.5 -1 S
3161 1242 1 -0.5 1 -0.5 1 -1 0.5 0 1 -1 1 -0.5 0.5 -1 
1 -0.5 1 -0.5 1 -0.5 0.5 -1 1 -0.5 1 -0.5 0.5 -0.5 1 -0.5 
1 -1 0.5 -0.5 1 -0.5 1 -0.5 0.5 -0.5 1 -0.5 1 -1 0.5 -0.5 
1 -0.5 1 -0.5 0.5 -1 1 -0.5 0.5 -0.5 1 -0.5 1 -0.5 0.5 -0.5 
1 -0.5 0.5 -0.5 1 -1 1 -0.5 0.5 -0.5 1 -0.5 0.5 -0.5 1 -0.5 
0.5 -0.5 1 -0.5 0.5 -1 1 0 1 -1 0.5 0 1 -1 0.5 -0.5 
1 -0.5 0.5 -0.5 1 -0.5 0.5 -0.5 1 -0.5 0.5 -0.5 1 -0.5 0.5 -0.5 
1 -0.5 0.5 -1 1 0 0.5 -0.5 1 -0.5 0.5 -1 1 0 0.5 -0.5 
1 -1 0.5 0 0.5 -0.5 1 -0.5 0.5 -1 1 -0.5 0.5 -0.5 1 -0.5 
0.5 -0.5 0.5 0 1 -1 0.5 0 1 -0.5 0.5 -0.5 1 -0.5 0.5 -0.5 
0.5 -0.5 1 -1 0.5 0 1 -1 0.5 -0.5 0.5 0 1 -0.5 0.5 -0.5 
0.5 -0.5 1 -0.5 0.5 -0.5 0.5 -0.5 1 0 0.5 -0.5 1 -0.5 0.5 -0.5 
0.5 -0.5 1 -0.5 0.5 -0.5 0.5 -0.5 1 -0.5 0.5 -0.5 0.5 -0.5 1 -0.5 
0.5 -0.5 S
3240 1186.5 0.5 -0.5 1 -0.5 0.5 0 0.5 -0.5 0.5 -0.5 1 -0.5 0.5 0 
0.5 -0.5 1 -0.5 0.5 -0.5 0.5 -0.5 0.5 -0.5 1 -0.5 0.5 -0.5 0.5 -0.5 
1 -0.5 0.5 -0.5 0.5 -0.5 0.5 -0.5 1 0 0.5 -0.5 0.5 -0.5 0.5 -0.5 
1 -0.5 0.5 0 0.5 -0.5 0.5 -0.5 1 -0.5 0.5 0 0.5 -0.5 0.5 -0.5 
1 -0.5 0.5 0 0.5 -1 0.5 0 0.5 -0.5 1 -0.5 0.5 -0.5 0.5 -0.5 
0.5 0 0.5 -0.5 1 -1 0.5 0 0.5 -0.5 0.5 -0.5 0.5 0 1 -0.5 
0.5 -0.5 0.5 -0.5 0.5 -0.5 0.5 0 0.5 -0.5 1 -0.5 0.5 0 0.5 -0.5 
0.5 -0.5 0.5 0 0.5 -0.5 1 -0.5 0.5 0 0.5 -0.5 0.5 -0.5 0.5 -0.5 
0.5 0 0.5 -0.5 1 -0.5 0.5 -0.5 0.5 0 0.5 -0.5 0.5 -0.5 0.5 0 
0.5 -0.5 1 -0.5 0.5 -0.5 0.5 0 0.5 -0.5 0.5 -0.5 0.5 0 0.5 -0.5 
0.5 -0.5 0.5 -0.5 1 0 0.5 -0.5 0.5 -0.5 0.5 0 0.5 -0.5 0.5 -0.5 
0.5 0 0.5 -0.5 0.5 -0.5 0.5 -0.5 0.5 0 0.5 -0.5 1 0 0.5 -0.5 S
[ 20 10 ] 0 d
2.5 w
K
1380 2864 1 -0.5 2.5 -1 2 -1 2 -1 2.5 -1 2 -1 2 -1 
2.5 -1 2 -1 2 -0.5 2.5 -1 2 -0.5 2 -1 2.5 -0.5 2 -1 
2 -0.5 2.5 -0.5 2 -0.5 2 -1 2.5 -0.5 2 -0.5 2 -0.5 2.5 -0.5 
2 -0.5 2 -0.5 2.5 -0.5 2 -0.5 2 -0.5 2.5 -0.5 2 -0.5 2 -0.5 
2 -0.5 2.5 -1 2 -0.5 2 -0.5 2.5 -1 2 -0.5 2 -1 2.5 -1 
2 -0.5 2 -1 2.5 -1 2 -1 2 -1 2.5 -1.5 2 -1 2 -1 
2.5 -1.5 2 -1 2 -1.5 2.5 -1.5 2 -1 2 -1.5 2.5 -1.5 2 -1 
2 -1.5 2.5 -1.5 2 -1 2 -1.5 2.5 -1 2 -1.5 2 -1 2 -1 
2.5 -1.5 2 -1 2 -0.5 2.5 -1 2 -1 2 -1 2.5 -0.5 2 -1 
2 -0.5 2.5 -0.5 2 -1 2 -0.5 2.5 -0.5 2 -0.5 2 -0.5 2.5 -1 
2 -0.5 2 -1 2.5 -0.5 2 -1 2 -0.5 2.5 -1 2 -1 2 -1 
2.5 -1 2 -1.5 2 -1 2.5 -1 2 -1.5 2 -1.5 2 -1 2.5 -1.5 
2 -1.5 2 -1 2.5 -1.5 2 -1.5 2 -1 2.5 -1.5 2 -1 2 -1.5 
2.5 -1 S
1604 2767.5 2 -1 2 -1 2.5 -1 2 -1 2 -0.5 2.5 -1 2 -1 
2 -0.5 2.5 -1 2 -0.5 2 -1 2.5 -0.5 2 -1 2 -1 2.5 -1 
2 -1 2 -1 2.5 -1 2 -1.5 2 -1 2.5 -1.5 2 -1 2 -1.5 
2 -1.5 2.5 -1 2 -1.5 2 -1 2.5 -1.5 2 -1 2 -1.5 2.5 -1 
2 -1 2 -1 2.5 -1 2 -1 2 -1 2.5 -0.5 2 -1 2 -1 
2.5 -1 2 -1 2 -1 2.5 -1 2 -1.5 2 -1 2.5 -1 2 -1.5 
2 -1 2.5 -1.5 2 -1 2 -1.5 2.5 -1 2 -1.5 2 -1 2 -1 
2.5 -1 2 -1.5 2 -1 2.5 -1 2 -1 2 -1 2.5 -1 2 -1 
2 -1 2.5 -1.5 2 -1 2 -1 2.5 -1.5 2 -1 2 -1 2.5 -1.5 
2 -1 2 -1.5 2.5 -1 2 -1.5 2 -1 2.5 -1 2 -1 2 -1.5 
2.5 -1 2 -1 2 -1 2.5 -1 2 -1.5 2 -1 2 -1 2.5 -1.5 
2 -1 2 -1.5 2.5 -1 2 -1.5 2 -1 2.5 -1 2 -1.5 2 -1 
2.5 -1 2 -1.5 2 -1 2.5 -1 2 -1.5 2 -1 2.5 -1 2 -1.5 
2 -1 S
1828.5 2652.5 2.5 -1 2 -1.5 2 -1 2.5 -1.5 2 -1 2 -1 2.5 -1.5 
2 -1 2 -1.5 2.5 -1 2 -1 2 -1.5 2.5 -1 2 -1.5 2 -1 
2 -1 2.5 -1.5 2 -1 2 -1.5 2.5 -1 2 -1.5 2 -1 2.5 -1 
2 -1.5 2 -1 2.5 -1.5 2 -1 2 -1.5 2.5 -1 2 -1 2 -1.5 
2.5 -1 2 -1.5 2 -1 2.5 -1.5 2 -1 2 -1 2.5 -1.5 2 -1 
2 -1.5 2.5 -1 2 -1.5 2 -1 2.5 -1.5 2 -1 2 -1.5 2 -1 
2.5 -1.5 2 -1 2 -1.5 2.5 -1 2 -1.5 2 -1 2.5 -1 2 -1.5 
2 -1 2.5 -1.5 2 -1 2 -1.5 2.5 -1 2 -1.5 2 -1 2.5 -1.5 
2 -1 2 -1.5 2.5 -1 2 -1.5 2 -1 2.5 -1.5 2 -1 2 -1.5 
2.5 -1.5 2 -1 2 -1.5 2.5 -1 2 -1.5 2 -1 2 -1.5 2.5 -1 
2 -1.5 2 -1 2.5 -1.5 2 -1 2 -1.5 2.5 -1 2 -1.5 2 -1 
2.5 -1.5 2 -1.5 2 -1 2.5 -1.5 2 -1 2 -1.5 2.5 -1 2 -1.5 
2 -1 2.5 -1.5 2 -1.5 2 -1 2.5 -1.5 2 -1 2 -1.5 2.5 -1 
2 -1.5 S
2053.5 2523.5 2 -1.5 2.5 -1 2 -1.5 2 -1 2.5 -1.5 2 -1 2 -1.5 
2 -1.5 2.5 -1 2 -1.5 2 -1 2.5 -1.5 2 -1.5 2 -1 2.5 -1.5 
2 -1 2 -1.5 2.5 -1.5 2 -1 2 -1.5 2.5 -1 2 -1.5 2 -1.5 
2.5 -1 2 -1.5 2 -1 2.5 -1.5 2 -1.5 2 -1 2.5 -1.5 2 -1 
2 -1.5 2.5 -1.5 2 -1 2 -1.5 2.5 -1.5 2 -1 2 -1.5 2 -1 
2.5 -1.5 2 -1.5 2 -1 2.5 -1.5 2 -1.5 2 -1 2.5 -1.5 2 -1.5 
2 -1 2.5 -1.5 2 -1 2 -1.5 2.5 -1.5 2 -1 2 -1.5 2.5 -1.5 
2 -1 2 -1.5 2.5 -1.5 2 -1 2 -1.5 2.5 -1.5 2 -1 2 -1.5 
2.5 -1.5 2 -1 2 -1.5 2.5 -1.5 2 -1 2 -1.5 2 -1.5 2.5 -1 
2 -1.5 2 -1.5 2.5 -1 2 -1.5 2 -1.5 2.5 -1 2 -1.5 2 -1.5 
2.5 -1 2 -1.5 2 -1.5 2.5 -1 2 -1.5 2 -1.5 2.5 -1.5 2 -1 
2 -1.5 2.5 -1.5 2 -1 2 -1.5 2.5 -1.5 2 -1 2 -1.5 2.5 -1.5 
2 -1.5 2 -1 2.5 -1.5 2 -1.5 2 -1 2.5 -1.5 2 -1.5 2 -1.5 
2 -1 S
2278 2386 2.5 -1.5 2 -1.5 2 -1 2.5 -1.5 2 -1.5 2 -1.5 2.5 -1 
2 -1.5 2 -1.5 2.5 -1 2 -1.5 2 -1.5 2.5 -1.5 2 -1 2 -1.5 
2.5 -1.5 2 -1.5 2 -1 2.5 -1.5 2 -1.5 2 -1.5 2.5 -1 2 -1.5 
2 -1.5 2.5 -1.5 2 -1 2 -1.5 2.5 -1.5 2 -1 2 -1.5 2 -1.5 
2.5 -1.5 2 -1 2 -1.5 2.5 -1.5 2 -1.5 2 -1.5 2.5 -1 2 -1.5 
2 -1.5 2.5 -1.5 2 -1 2 -1.5 2.5 -1.5 2 -1.5 2 -1 2.5 -1.5 
2 -1.5 2 -1.5 2.5 -1 2 -1.5 2 -1.5 2.5 -1.5 2 -1.5 2 -1 
2.5 -1.5 2 -1.5 2 -1.5 2.5 -1 2 -1.5 2 -1.5 2 -1.5 2.5 -1.5 
2 -1 2 -1.5 2.5 -1.5 2 -1.5 2 -1 2.5 -1.5 2 -1.5 2 -1.5 
2.5 -1.5 2 -1 2 -1.5 2.5 -1.5 2 -1.5 2 -1.5 2.5 -1 2 -1.5 
2 -1.5 2.5 -1.5 2 -1.5 2 -1 2.5 -1.5 2 -1.5 2 -1.5 2.5 -1.5 
2 -1 2 -1.5 2.5 -1.5 2 -1.5 2 -1.5 2.5 -1.5 2 -1 2 -1.5 
2 -1.5 2.5 -1.5 2 -1.5 2 -1 2.5 -1.5 2 -1.5 2 -1.5 2.5 -1.5 
2 -1.5 S
2503 2241.5 2 -1 2.5 -1.5 2 -1.5 2 -1.5 2.5 -1.5 2 -1 2 -1.5 
2.5 -1.5 2 -1.5 2 -1.5 2.5 -1.5 2 -1 2 -1.5 2.5 -1.5 2 -1.5 
2 -1.5 2.5 -1.5 2 -1 2 -1.5 2.5 -1.5 2 -1.5 2 -1.5 2 -1.5 
2.5 -1.5 2 -1 2 -1.5 2.5 -1.5 2 -1.5 2 -1.5 2.5 -1.5 2 -1 
2 -1.5 2.5 -1.5 2 -1.5 2 -1.5 2.5 -1.5 2 -1.5 2 -1 2.5 -1.5 
2 -1.5 2 -1.5 2.5 -1.5 2 -1.5 2 -1.5 2.5 -1 2 -1.5 2 -1.5 
2.5 -1.5 2 -1.5 2 -1.5 2.5 -1.5 2 -1 2 -1.5 2 -1.5 2.5 -1.5 
2 -1.5 2 -1.5 2.5 -1.5 2 -1 2 -1.5 2.5 -1.5 2 -1.5 2 -1.5 
2.5 -1.5 2 -1.5 2 -1.5 2.5 -1 2 -1.5 2 -1.5 2.5 -1.5 2 -1.5 
2 -1.5 2.5 -1.5 2 -1.5 2 -1.5 2.5 -1 2 -1.5 2 -1.5 2.5 -1.5 
2 -1.5 2 -1.5 2.5 -1.5 2 -1.5 2 -1 2.5 -1.5 2 -1.5 2 -1.5 
2 -1.5 2.5 -1.5 2 -1.5 2 -1.5 2.5 -1.5 2 -1.5 2 -1 2.5 -1.5 
2 -1.5 2 -1.5 2.5 -1.5 2 -1.5 2 -1.5 2.5 -1.5 2 -1.5 2 -1 
2.5 -1.5 S
2728 2093 2 -1.5 2 -1.5 2.5 -1.5 2 -1.5 2 -1.5 2.5 -1.5 2 -1.5 
2 -1.5 2.5 -1.5 2 -1 2 -1.5 2.5 -1.5 2 -1.5 2 -1.5 2 -1.5 
2.5 -1.5 2 -1.5 2 -1.5 2.5 -1.5 2 -1.5 2 -1 2.5 -1.5 2 -1.5 
2 -1.5 2.5 -1.5 2 -1.5 2 -1.5 2.5 -1.5 2 -1.5 2 -1.5 2.5 -1.5 
2 -1.5 2 -1 2.5 -1.5 2 -1.5 2 -1.5 2.5 -1.5 2 -1.5 2 -1.5 
2.5 -1.5 2 -1.5 2 -1.5 2.5 -1.5 2 -1.5 2 -1.5 2 -1.5 2.5 -1 
2 -1.5 2 -1.5 2.5 -1.5 2 -1.5 2 -1.5 2.5 -1.5 2 -1.5 2 -1.5 
2.5 -1.5 2 -1.5 2 -1.5 2.5 -1.5 2 -1.5 2 -1.5 2.5 -1 2 -1.5 
2 -1.5 2.5 -1.5 2 -1.5 2 -1.5 2.5 -1.5 2 -1.5 2 -1.5 2.5 -1.5 
2 -1.5 2 -1.5 2.5 -1.5 2 -1.5 2 -1.5 2 -1.5 2.5 -1.5 2 -1.5 
2 -1 2.5 -1.5 2 -1.5 2 -1.5 2.5 -1.5 2 -1.5 2 -1.5 2.5 -1.5 
2 -1.5 2 -1.5 2.5 -1.5 2 -1.5 2 -1.5 2.5 -1.5 2 -1.5 2 -1.5 
2.5 -1.5 2 -1.5 2 -1.5 2.5 -1.5 2 -1.5 2 -1.5 2.5 -1 2 -1.5 
2 -1.5 S
2952.5 1940.5 2.5 -1.5 2 -1.5 2 -1.5 2.5 -1.5 2 -1.5 2 -1.5 2 -1.5 
2.5 -1.5 2 -1.5 2 -1.5 2.5 -1.5 2 -1.5 2 -1.5 2.5 -1.5 2 -1.5 
2 -1.5 2.5 -1.5 2 -1.5 2 -1.5 2.5 -1.5 2 -1.5 2 -1.5 2.5 -1.5 
2 -1.5 2 -1.5 2.5 -1.5 2 -1.5 2 -1 2.5 -1.5 2 -1.5 2 -1.5 
2.5 -1.5 2 -1.5 2 -1.5 2.5 -1.5 2 -1.5 2 -1.5 2 -1.5 2.5 -1.5 
2 -1.5 2 -1.5 2.5 -1.5 2 -1.5 2 -1.5 2.5 -1.5 2 -1.5 2 -1.5 
2.5 -1.5 2 -1.5 2 -1.5 2.5 -1.5 2 -1.5 2 -1.5 2.5 -1.5 2 -1.5 
2 -1.5 2.5 -1.5 2 -1.5 2 -1.5 2.5 -1.5 2 -1.5 2 -1.5 2.5 -1.5 
2 -1.5 2 -1.5 2.5 -1.5 2 -1.5 2 -1.5 2 -1.5 2.5 -1.5 2 -1.5 
2 -1.5 2.5 -1.5 2 -1.5 2 -1.5 2.5 -1.5 2 -1.5 2 -1.5 2.5 -1.5 
2 -1.5 2 -1.5 2.5 -1.5 2 -1.5 2 -1.5 2.5 -1.5 2 -1.5 2 -1.5 
2.5 -1.5 2 -1.5 2 -1.5 2.5 -1.5 2 -1.5 2 -1.5 2.5 -1.5 2 -1.5 
2 -1.5 2.5 -1.5 2 -1.5 2 -1.5 2.5 -1.5 2 -1.5 2 -1.5 2 -1.5 
2.5 -1.5 S
3177.5 1785 2 -1.5 2 -1.5 2.5 -1.5 2 -1.5 2 -1.5 2.5 -1.5 2 -1.5 
2 -1.5 2.5 -1.5 2 -1.5 2 -1.5 2.5 -1.5 2 -1.5 2 -1.5 2.5 -1.5 
2 -1.5 2 -1.5 2.5 -1.5 2 -1.5 2 -1.5 2.5 -1.5 2 -1.5 2 -1.5 
2.5 -1.5 2 -1.5 2 -1.5 2.5 -1.5 2 -1.5 2 -1.5 2 -1.5 2.5 -1.5 
2 -1.5 2 -1.5 2.5 -1.5 2 -1.5 2 -1.5 2.5 -1.5 2 -1.5 2 -1.5 
2.5 -1.5 2 -1.5 2 -1.5 2.5 -1.5 2 -1.5 2 -1.5 2.5 -2 2 -1.5 
2 -1.5 2.5 -1.5 2 -1.5 2 -1.5 2.5 -1.5 2 -1.5 2 -1.5 2.5 -1.5 
2 -1.5 2 -1.5 2.5 -1.5 2 -1.5 2 -1.5 2 -1.5 2.5 -1.5 2 -1.5 
2 -1.5 2.5 -1.5 2 -1.5 2 -1.5 2.5 -1.5 2 -1.5 2 -1.5 2.5 -1.5 
2 -1.5 2 -1.5 2.5 -1.5 2 -1.5 2 -1.5 2.5 -1.5 2 -1.5 2 -1.5 
2.5 -1.5 2 -2 2 -1.5 2.5 -1.5 2 -1.5 2 -1.5 2.5 -1.5 2 -1.5 
2 -1.5 2.5 -1.5 2 -1.5 2 -1.5 2.5 -1.5 2 -1.5 2 -1.5 2 -1.5 
2.5 -1.5 2 -1.5 2 -1.5 2.5 -1.5 2 -1.5 2 -1.5 2.5 -1.5 2 -1.5 
2 -1.5 S
3402 1628 2.5 -1.5 2 -2 2 -1.5 2.5 -1.5 2 -1.5 2 -1.5 2.5 -1.5 
2 -1.5 2 -1.5 2.5 -1.5 2 -1.5 2 -1.5 2.5 -1.5 2 -1.5 2 -1.5 
2.5 -1.5 2 -1.5 2 -1.5 2.5 -1.5 2 -1.5 2 -1.5 2 -1.5 2.5 -1.5 
2 -2 2 -1.5 2.5 -1.5 2 -1.5 2 -1.5 2.5 -1.5 2 -1.5 0.5 0 S
[ 30 10 5 10 ] 0 d
255 0 r6
3086.5 836 0 1767 0 48.5 0 28 0 20 0 16 0 12.5 0 11 
0 9 0 8.5 0 7 0 7 0 6 0 5.5 0 5 0 5 
0 4.5 0 4 0 4 0 4 0 3.5 0 3.5 0 3 0 3 
0 3 0 3 0 3 0 2.5 0 2.5 0 2.5 0 2 0 2.5 
0 2 0 2.5 0 2 0 2 0 2 0 2 0 1.5 0 2 
0 2 0 1.5 0 1.5 0 2 0 1.5 0 1.5 0 1.5 0 1.5 
0 1.5 0 1.5 0 1.5 0 1 0 1.5 0 1.5 0 1 0 1.5 
0 1.5 0 1 0 1 0 1.5 0 1 0 1 0 1.5 0 1 
0 1 0 1 0 1 0 1.5 0 1 0 1 0 1 0 1 
0 1 0 1 0 0.5 0 1 0 1 0 1 0 1 0 1 
0 0.5 0 1 0 1 0 0.5 0 1 0 1 0 0.5 0 1 
0 1 0 0.5 0 1 0 0.5 0 1 0 0.5 0 1 0 0.5 
0 1 0 0.5 0 1 0 0.5 S
[ ] 0 d
5 w
K
1380 836 2087.5 2087.5 re
S
cleartomark end end pagesave restore
 showpage
%%PageTrailer
%%Trailer
%%Pages: 1
