\relax 
\providecommand\hyper@newdestlabel[2]{}
\providecommand\HyperFirstAtBeginDocument{\AtBeginDocument}
\HyperFirstAtBeginDocument{\ifx\hyper@anchor\@undefined
\global\let\oldcontentsline\contentsline
\gdef\contentsline#1#2#3#4{\oldcontentsline{#1}{#2}{#3}}
\global\let\oldnewlabel\newlabel
\gdef\newlabel#1#2{\newlabelxx{#1}#2}
\gdef\newlabelxx#1#2#3#4#5#6{\oldnewlabel{#1}{{#2}{#3}}}
\AtEndDocument{\ifx\hyper@anchor\@undefined
\let\contentsline\oldcontentsline
\let\newlabel\oldnewlabel
\fi}
\fi}
\global\let\hyper@last\relax 
\gdef\HyperFirstAtBeginDocument#1{#1}
\providecommand\HyField@AuxAddToFields[1]{}
\providecommand\HyField@AuxAddToCoFields[2]{}
\select@language{italian}
\@writefile{toc}{\select@language{italian}}
\@writefile{lof}{\select@language{italian}}
\@writefile{lot}{\select@language{italian}}
\select@language{italian}
\@writefile{toc}{\select@language{italian}}
\@writefile{lof}{\select@language{italian}}
\@writefile{lot}{\select@language{italian}}
\@writefile{toc}{\contentsline {section}{\numberline {1}Evoluzione di una perturbazione sferica}{1}{section.1}}
\@writefile{toc}{\contentsline {subsection}{\numberline {1.1}Teoria lineare}{1}{subsection.1.1}}
\newlabel{contrasto densita non medio}{{1}{1}{Teoria lineare}{equation.1.1}{}}
\newlabel{continuita}{{2}{1}{Teoria lineare}{equation.1.2}{}}
\newlabel{contrasto densita}{{3}{2}{Teoria lineare}{equation.1.3}{}}
\newlabel{velocita lineare}{{4}{2}{Teoria lineare}{equation.1.4}{}}
\@writefile{toc}{\contentsline {subsection}{\numberline {1.2}Teoria non lineare}{2}{subsection.1.2}}
\newlabel{contrasto densita sferico}{{5}{2}{Teoria non lineare}{equation.1.5}{}}
\newlabel{distribuzione di massa}{{6}{2}{Teoria non lineare}{equation.1.6}{}}
\newlabel{densita critica}{{7}{3}{Teoria non lineare}{equation.1.7}{}}
\newlabel{Hubble}{{8}{3}{Teoria non lineare}{equation.1.8}{}}
\newlabel{ommega}{{9}{3}{Teoria non lineare}{equation.1.9}{}}
\newlabel{costante}{{10}{3}{Teoria non lineare}{equation.1.10}{}}
\newlabel{alpha_i e delta_ci}{{11}{4}{Teoria non lineare}{equation.1.11}{}}
\newlabel{intermedia1}{{12}{4}{Teoria non lineare}{equation.1.12}{}}
\newlabel{conservazione_massa}{{13}{4}{Teoria non lineare}{equation.1.13}{}}
\newlabel{finale1}{{14}{4}{Teoria non lineare}{equation.1.14}{}}
\@writefile{toc}{\contentsline {paragraph}{Soluzione dell'equazione}{5}{section*.1}}
\newlabel{finale2}{{15}{5}{Soluzione dell'equazione}{equation.1.15}{}}
\newlabel{esp chiusa}{{16}{5}{Soluzione dell'equazione}{equation.1.16}{}}
\newlabel{tempo chiusa}{{17}{5}{Soluzione dell'equazione}{equation.1.17}{}}
\newlabel{esp aperta}{{18}{5}{Soluzione dell'equazione}{equation.1.18}{}}
\newlabel{tempo aperta}{{19}{6}{Soluzione dell'equazione}{equation.1.19}{}}
\@writefile{toc}{\contentsline {subsubsection}{\numberline {1.2.1}Sovradensit\IeC {\`a}: il turnaround}{6}{subsubsection.1.2.1}}
\newlabel{nove_mezzi}{{20}{6}{Sovradensità: il turnaround}{equation.1.20}{}}
\newlabel{z_pi1_chiusa}{{22}{7}{Sovradensità: il turnaround}{equation.1.22}{}}
\@writefile{toc}{\contentsline {subsubsection}{\numberline {1.2.2}Sottodensit\IeC {\`a}: lo shell crossing}{8}{subsubsection.1.2.2}}
\newlabel{z_p2_aperta}{{23}{8}{Sottodensità: lo shell crossing}{equation.1.23}{}}
