\BOOKMARK [1][-]{section.1}{Evoluzione di una perturbazione sferica}{}% 1
\BOOKMARK [2][-]{subsection.1.1}{Teoria lineare}{section.1}% 2
\BOOKMARK [2][-]{subsection.1.2}{Teoria non lineare}{section.1}% 3
\BOOKMARK [3][-]{subsubsection.1.2.1}{Sovradensit\340: il turnaround}{subsection.1.2}% 4
\BOOKMARK [3][-]{subsubsection.1.2.2}{Sottodensit\340: lo shell crossing}{subsection.1.2}% 5
